<?xml version="1.0"?>
<VTKFile type="UnstructuredGrid"  version="0.1"  >
<UnstructuredGrid>
<Piece  NumberOfPoints="639" NumberOfCells="1227">
<Points>
<DataArray  type="Float64"  NumberOfComponents="3"  format="ascii">1 0 0  5 0 0  0.9766205557100867 0.2149704402110244 0  0.9075754196709568 0.4198891015602652 0  0.7960930657056432 0.6051742151937659 0  0.6473862847818267 0.7621620551276372 0  0.4684084406997888 0.8835120444460236 0  0.2675283385292189 0.9635499925192235 0  0.05413890858541495 0.998533413851124 0  -0.1617819965527674 0.9868265225415257 0  -0.3701381553399173 0.9289767198167903 0  -0.5611870653623845 0.8276889981568891 0  -0.7259954919231327 0.6876994588534213 0  -0.8568571761675905 0.5155538571770197 0  -0.9476531711828031 0.3193015301359781 0  -0.9941379571543598 0.1081190184239402 0  -0.9941379571543594 -0.1081190184239434 0  -0.9476531711828019 -0.3193015301359817 0  -0.8568571761675881 -0.5155538571770237 0  -0.725995491923129 -0.6876994588534253 0  -0.5611870653623803 -0.8276889981568919 0  -0.370138155339912 -0.9289767198167924 0  -0.1617819965527621 -0.9868265225415266 0  0.05413890858541936 -0.9985334138511238 0  0.2675283385292227 -0.9635499925192225 0  0.4684084406997919 -0.8835120444460219 0  0.6473862847818286 -0.7621620551276357 0  0.7960930657056445 -0.6051742151937641 0  0.9075754196709572 -0.4198891015602642 0  0.9766205557100868 -0.2149704402110235 0  4.958950069116231 0.6393858084225302 0  4.836474315195146 1.268272919547537 0  4.634583786730109 1.876335024396871 0  4.356593520616946 2.45358776001969 0  4.007068109339783 2.99055265245608 0  3.591746750488637 3.478412753017433 0  3.117449009293666 3.90915741234015 0  2.591962841552623 4.275713815026732 0  2.023916715611967 4.572063115079064 0  1.42263793315516 4.793339265183303 0  0.7979994751668933 4.935908917072251 0  0.1602578878582733 4.997431081003439 0  -0.480115129538411 4.97689556474599 0  -1.112604669781576 4.874639560909117 0  -1.726825272106543 4.6923421102488 0  -2.312691451204181 4.432996531864998 0  -2.860583300610855 4.100861272984774 0  -3.361504451306589 3.701389985376573 0  -3.807229791845677 3.241141976538937 0  -4.190440524459207 2.727674506052738 0  -4.504844339512099 2.169418695587785 0  -4.745278735053346 1.575541090118096 0  -4.907795784955328 0.9557931435068562 0  -4.989726963751682 0.3203510999035573 0  -4.989726963751681 -0.3203510999035738 0  -4.907795784955326 -0.9557931435068658 0  -4.745278735053342 -1.575541090118108 0  -4.504844339512094 -2.169418695587794 0  -4.190440524459202 -2.727674506052744 0  -3.807229791845673 -3.241141976538941 0  -3.361504451306585 -3.701389985376577 0  -2.860583300610854 -4.100861272984775 0  -2.31269145120418 -4.432996531864998 0  -1.726825272106541 -4.692342110248801 0  -1.112604669781577 -4.874639560909117 0  -0.4801151295384122 -4.97689556474599 0  0.1602578878582743 -4.997431081003439 0  0.797999475166892 -4.935908917072251 0  1.42263793315516 -4.793339265183304 0  2.023916715611965 -4.572063115079064 0  2.591962841552622 -4.275713815026732 0  3.117449009293663 -3.909157412340152 0  3.591746750488635 -3.478412753017435 0  4.007068109339783 -2.990552652456081 0  4.356593520616945 -2.453587760019693 0  4.634583786730106 -1.876335024396877 0  4.836474315195145 -1.268272919547542 0  4.958950069116231 -0.6393858084225332 0  -3.003311897241228 -7.881021967213119e-15 0  -2.298859327297161 1.739678302340018 0  -2.315471187291361 -1.755972822973817 0  -0.7712110438258717 -2.719112649041525 0  -0.7712110438258859 2.719112649041521 0  0.9989295142256598 -2.578331418623349 0  0.9989295142256512 2.578331418623357 0  2.405294676823961 1.449291234926253 0  2.389255795759939 -1.417500868691717 0  2.180430080205405 0.235837119448399 0  -2.035818510603866 0.5308746739964011 0  -1.255604681753283 -1.503765395702493 0  -1.306438359788684 1.562462160855393 0  -0.1323537683841671 -1.940726896951263 0  -0.1323537683841763 1.940726896951263 0  1.059688712984944 -1.648120622688428 0  1.094630325139043 1.614458944418893 0  -1.954733898626707 -0.6376782936411663 0  1.809646598412802 -0.6097409320726218 0  1.501973856868184 0.9592747013461087 0  3.46799160221794 -0.4475769177341026 0  2.367653269119488 -2.777877750752537 0  2.367653269119478 2.777877750752547 0  0.2023971828657941 -3.690118052224594 0  0.2023971828657742 3.690118052224595 0  -2.105244777734416 -3.005560868244005 0  -2.105244777734431 3.005560868243994 0  3.316827333495096 0.6618023687043191 0  -3.48643510479506 1.216600760989327 0  -3.486435104795053 -1.216600760989346 0  -1.521439295335899 0.6715350784290538 0  -1.597597927282006 -2.877959984405518e-15 0  -0.6042340513433461 -1.527519851857198 0  -0.6274551001942769 1.545694959110476 0  -1.258718586330211 -0.9499683983143078 0  0.4382325585650328 -1.597586871624605 0  0.438232558565028 1.597586871624608 0  3.59382186084825 -1.707155149395626 0  1.550893539003215 0.1916845835145282 0  3.487422126287878 1.844347171681758 0  1.322103573836976 -1.00309810134524 0  1.352441261502156 -3.665101571209883 0  1.352441261502132 3.665101571209891 0  -1.146179349098883 -3.75170027734854 0  -1.146179349098902 3.751700277348531 0  1.82629545969653 -2.10794907092188 0  1.855818344074491 2.182117060423187 0  0.2045976162472015 -2.809029207103574 0  0.2045976162471911 2.809029207103574 0  2.627713281606614 -0.4423063410463225 0  -1.505115615342359 -2.321922595165159 0  -1.505115615342371 2.32192259516515 0  -2.987856347933783 -2.548444083021443 0  -2.987856347933796 2.54844408302143 0  -0.9657285189166604 1.136943506489231 0  -2.642834632128821 0.9927523341591143 0  -1.932561510171993 1.210453376989328 0  -0.07983374797279176 -1.472446840667877 0  -0.1300551058957265 1.476497525143096 0  -4.012401107354553 -0.3371539560289071 0  0.8028977008989533 -1.233724170858103 0  0.7601292131044975 1.268726693899723 0  -1.42792143777561 -0.4757587034152936 0  -2.782666583383104 -0.7015438502225743 0  1.369821960936237 -0.4615467572328065 0  1.698306291797124 -1.439324831004059 0  0.4473553256913562 -2.213112669577327 0  0.4473553256913461 2.21311266957733 0  -0.9505844301517752 -2.055133321987916 0  -0.9778108681482249 2.065499233827663 0  -2.164796456220095 -0.1158657742491089 0  -1.741203992001458 -1.203832868569232 0  4.043657594792389 0.2139497670104707 0  2.803966514164324 -2.079670162004581 0  1.686933551546582 1.515732294626495 0  -0.8479875302785171 -1.169683059137832 0  -3.5984419115877 0.4021787065150551 0  -1.338988365509652 0.2947336267786835 0  2.123784355972992 0.8399868088133015 0  2.975482316999873 -1.092629169664619 0  1.208994734385299 0.7502064945519101 0  2.708586569206888 2.102339506022613 0  3.977284243902994 1.14245156993565 0  1.61518543595584 -2.94839887896556 0  1.605059579043647 2.97296229142096 0  0.7696354309350756 -3.206737025908601 0  0.7696354309350606 3.206737025908607 0  -0.492444637773889 -3.376107228101035 0  -0.4924446377739052 3.376107228101029 0  2.866381626091929 0.07483927242305644 0  -3.021836133080725 -1.782877540543443 0  -3.019126285175862 1.791518401570742 0  -1.364061156530764 -3.030519970430313 0  -1.36406115653078 3.030519970430304 0  -2.364508580796034 -1.12576005531216 0  3.182989536125805 2.772923338352424 0  2.217102360371394 -3.598798574908166 0  2.223816252829531 3.600153125150569 0  -2.203744033826341 -2.453844996404342 0  -2.203744033826352 2.45384499640433 0  -0.600121393244464 1.165548851543597 0  -1.054990793179544 0.7999120012568981 0  4.045446316798488 -1.057143690959803 0  -0.3929498975782315 4.205588122652716 0  -0.3929498975782035 -4.205588122652718 0  -1.403983296429675 1.059020971900858 0  -2.585358328078338 0.4136354049190157 0  0.2130160559859287 -1.299340459712666 0  -0.3782586056727322 -1.276888055258222 0  0.2130160559859232 1.299340459712668 0  3.151391820288642 -2.806295610772128 0  0.9519078413380662 -0.9027140102875165 0  2.292234408787879 -0.8859923715283636 0  -1.741606438493535 -1.867619818778629 0  -1.73936030159605 1.87218464032572 0  1.296893354575994 -0.1410456521534037 0  1.696540033163564 -0.2186556643851207 0  3.007584281216827 1.290403243076826 0  -3.722597933140286 -1.950610206607904 0  -3.719522209093036 1.945737622143104 0  -0.2708148707147174 -2.501917251155101 0  -0.2708148707147294 2.5019172511551 0  1.286351463021012 -2.128852788097063 0  1.283740269456163 2.129229082668012 0  2.2603393896061 -0.2918121876537206 0  0.7359537079152374 -4.182331373838617 0  0.7359537079152123 4.182331373838621 0  -3.433124464349557 -0.5041174231956903 0  -1.914748016956207 -3.792690044893424 0  -1.914748016956227 3.792690044893416 0  1.243276584312888 1.221098611752532 0  1.327818261557186 0.3746367779842462 0  -2.708268265955804 -3.230726938330672 0  -2.708268265955821 3.230726938330658 0  0.7589314687826899 -1.897804814851508 0  0.7589314687826848 1.897804814851515 0  1.804472629254785 0.5606240676916506 0  -0.5315922168956979 -1.993226985211191 0  -0.5520957947330605 1.962170564772723 0  -4.154459003718392 1.100188937273805 0  1.746818682451186 -1.030182937121526 0  0.9798727998792278 0.8659747460866187 0  -3.182417717448941 0.6030171634919597 0  -1.283970726736361 0.02428633510422753 0  -4.183921655073838 -1.014292863606222 0  -0.3231775368907901 1.273509281996036 0  2.689505763406874 0.7019246577297005 0  0.5424784653546973 -1.172518871875095 0  0.5353503840556184 1.178352625715368 0  -1.622407233938876 -0.8219660620760839 0  -1.109537794966303 0.5258733565518945 0  1.152317676122685 -0.6409624861530618 0  -1.810084415691887 -0.3555248780288329 0  3.678250300167934 -2.277295316843468 0  -1.008857768388648 -0.7560073118133356 0  -2.597148976532372 -0.3226245730037844 0  3.407082110842389 0.1294906322610473 0  2.400609067113506 -2.002704682133528 0  -1.208168738501713 -0.2703657592934945 0  4.129021369401698 -0.354273539812187 0  -4.325285313420884 0.2466935631114982 0  2.740110945237789 3.243199102070802 0  -2.81803225911719 -1.318644370301322 0  -1.126048490299203 -0.5061131000776798 0  -2.316542736545799 0.8200153700526576 0  -1.639104013946918 0.4434287010162227 0  -0.5612829498095524 -1.077169078328408 0  -1.730710189684842 0.7380956209071697 0  -1.633090888743892 1.33491017089637 0  -0.2151607925139346 -2.885592623277709 0  -0.2151607925139473 2.885592623277707 0  3.742341971100298 2.219424896987306 0  2.270815716534995 1.906252965112926 0  -0.3635530759940459 -1.722855594914193 0  -0.3273530967632688 1.705631474071104 0  1.553746798088422 -2.407943530488845 0  1.544877457181171 2.446047820427943 0  2.849475340971562 -1.582801661050099 0  2.687149644646677 -3.257181248657956 0  -0.9762841101133588 1.477889133810707 0  0.7680432939848375 -1.543314777674255 0  0.7680432939848338 1.543314777674259 0  1.849943993922182 1.168931799934579 0  0.1402527406791136 -1.752988122231895 0  0.1402527406791058 1.752988122231895 0  -0.8070170186175833 0.9525582467057823 0  -0.9663621516713113 -1.695241216369479 0  -2.62843907759678 -2.115864688440895 0  -2.632676089134729 2.12349831245117 0  -1.352225343007087 -1.921973617060241 0  -1.352225343007097 1.921973617060233 0  1.318854837069181 -1.373480008503833 0  -2.330041516113318 1.290157869463289 0  0.5930295818101281 -2.623872985546896 0  0.5930295818101178 2.623872985546897 0  1.231424502189649 0.1117842021115024 0  -1.105964542550871 -2.458180743801534 0  -1.120142347090663 2.475301436881371 0  1.518996440293455 -0.7591180585814817 0  -0.079966281788392 -1.254482809261143 0  -0.05142731197239515 1.224944303366533 0  0.04414894771737946 -2.27877835833258 0  0.04414894771736831 2.27877835833258 0  -3.608729175759044 -2.536343605575339 0  -3.609043632456429 2.544240536034762 0  1.491248238866596 0.6231238699388025 0  1.390409398029113 -1.759648920373772 0  0.7062201305622025 -0.955899115812911 0  0.7422201313029245 0.9734660032119841 0  4.040593028263417 1.734430029145819 0  0.1938135161406341 4.197838390859889 0  0.1938135161406624 -4.197838390859886 0  -3.471801010952926 -0.05717009014013958 0  1.172068584474194 -3.059311332384847 0  1.17086312531797 3.062235548153357 0  3.498494020047425 -0.9718946922626884 0  -0.9043502744881459 -3.144181501899624 0  -0.9043502744881615 3.144181501899617 0  3.042070159470737 -0.2514211377184676 0  -0.7867422369964796 -0.9262245653026626 0  -1.116234248416985 -1.203915618305715 0  -0.9614838109337017 -4.296525637370912 0  -0.9614838109337296 4.296525637370906 0  -1.87305722393838 0.1716793847543938 0  4.09878997009327 -1.61952426726498 0  1.818524162796988 4.016578515279557 0  1.81852416279701 -4.016578515279554 0  -2.36870825967497 -0.7541006484320664 0  -1.93822836798868 1.587046356649106 0  1.848806760708922 0.02153143667175232 0  1.128004471253187 -0.3768187392267561 0  -2.817330970395008 1.381679256706682 0  -0.6280194116985298 -2.375600263332883 0  -0.6368633860376236 2.375090289687327 0  1.401887186081901 1.781268896630592 0  2.318921001067909 2.367826989266647 0  2.477713307924665 -0.02183866911691639 0  -1.493187129909802 -4.164601066573563 0  -1.49318712990982 4.164601066573551 0  3.440153072408138 1.086227544309968 0  0.9170665443120571 -2.252108747466056 0  0.9166935166599304 2.25216250383334 0  2.007351172302497 -2.535715763483706 0  -2.496398124998277 -2.819816608297046 0  -2.496398124998292 2.819816608297032 0  -1.963677980485666 -1.523503984489761 0  2.019236364613789 -1.283343350340886 0  2.094917682641363 -1.743448723484648 0  2.703573817407439 1.657337244340217 0  -3.241569205809653 -3.120875670539338 0  -3.241606641130781 3.121815781308308 0  0.3929053081111339 -1.91239754195613 0  0.3929053081111241 1.912397541956131 0  -2.273624254561089 0.2479333663670343 0  0.09859965094992955 -3.21869107774239 0  0.09859965094991981 3.218691077742388 0  -0.8506181481081048 1.767409306893222 0  2.492756734344427 1.019123545004967 0  1.317395604458851 4.207920348123039 0  1.317395604458868 -4.207920348123038 0  -1.437274065889081 -1.19733806607395 0  4.401101531527174 0.7429751605207049 0  3.764350981161363 0.6628161737903601 0  3.223425356377085 2.313131034588923 0  1.08573657007761 -1.128302383569102 0  -4.48016621174399 -0.5434705783512521 0  0.8605144163166615 -3.687062909753826 0  0.8605144163166397 3.687062909753832 0  2.596121464987747 -1.121255983271532 0  -4.164113292933802 1.696995487163384 0  3.019820960773111 -0.6681300678263032 0  -1.669310100373391 1.019289527450808 0  -1.73502253565506 -2.698460798048341 0  -1.735022535655074 2.698460798048331 0  -1.565618977436929 -3.486768822489239 0  -1.565618977436948 3.48676882248923 0  -2.600406477749844 0.07983702274345289 0  -2.395477709330817 -3.843033305730601 0  -2.39547770933083 3.843033305730593 0  -1.629475652893673 -1.500580053475867 0  -4.184357006603832 -1.630239584160096 0  -3.70427594325607 -0.8805252766768863 0  -1.490316979059781 -0.21234848426601 0  -1.306832649778857 -0.6996914386309504 0  -3.086718228615305 1.012266246181346 0  -0.6758568732759928 -3.816770658648693 0  -0.6758568732760148 3.816770658648688 0  2.033387522139041 1.556145241918932 0  2.356970458460344 0.566752093057085 0  0.9971735435281779 0.6162360464127645 0  2.476647333414717 -2.407451866864038 0  1.96182392568618 2.645195727748484 0  1.185251553003475 0.9765361092871271 0  -0.895468382828135 -1.418749655069183 0  1.75506442297556 3.438821832068833 0  1.755064422975576 -3.438821832068814 0  2.078613903630382 3.124342454199623 0  2.07861390363039 -3.124342454199605 0  -2.065170956249589 -2.046748479515016 0  -2.0651709562496 2.046748479515005 0  2.767783527077126 2.571542585891713 0  -2.038815144401149 -1.071260093961715 0  1.53441144634766 1.261854327526649 0  -3.131864517757913 -0.9341689418653882 0  -3.036900952642319 -0.404473380527981 0  -1.196415496381407 1.27505074434004 0  -1.134857603109896 0.2544627733989447 0  2.187702328298708 -0.6050065683205459 0  3.229586855928133 -1.916054563114795 0  -0.225121462960151 -3.763875437330647 0  -0.225121462960175 3.763875437330647 0  -1.003708074082168 -1.00115979057477 0  -3.267867199640524 -2.166606933239216 0  -3.267813658419997 2.167444207249695 0  -0.3115673901869155 -2.199856047894694 0  -0.314562038368195 2.196634987273873 0  4.49746278746077 -0.03510539328544208 0  1.07582803590652 -1.930358630987203 0  1.075501995942621 1.924210520269696 0  1.819192859522449 0.8527183770315744 0  1.339177124087844 1.468253755027769 0  2.031136643317268 -0.9088668362916499 0  -2.179094401349206 -0.4371588334709918 0  -2.64521775700029 -1.668234775479988 0  4.440123064628616 -0.751759054320798 0  3.77497832456877 -0.1507676743398804 0  1.03041085867002 1.36542515488137 0  1.101174986274388 0.375872014580451 0  -3.413780437908436 -1.665230130841472 0  -3.408823870229484 1.667131820640471 0  -0.6574463039864565 -1.294001939930169 0  -3.247394590368561 0.2617166636699293 0  1.747785956522387 -1.798007028433802 0  -3.596859318151846 0.8180614725101786 0  2.676337811459409 -3.718567752688103 0  -2.328698494011943 0.5288575110718439 0  -1.670926555675037 -0.5669788506294218 0  2.621193633070275 3.776618608856857 0  -0.1016780578987883 4.583105540292637 0  -0.1016780578987702 -4.583105540292634 0  -1.293156549333875 0.7946561694872739 0  -0.7849694298274261 1.290092338620676 0  1.520117992196302 -0.05934750562306926 0  -0.3960198089746486 1.477646444718498 0  1.007044223003105 -1.385388392658744 0  -2.629199072087326 1.689467648776396 0  -1.110366503420883 1.755318166623122 0  2.871010551746084 -2.51352481565438 0  0.8495041967235385 -2.872762790134957 0  0.8495041967235226 2.872762790134962 0  -1.133127209102706 1.003298222474565 0  1.617434522502993 -0.4534324535962496 0  0.2897127380954335 -2.497276444487397 0  0.2897127380954223 2.497276444487399 0  4.378007381123768 1.352892940709317 0  -1.577754081753169 1.62995978097296 0  0.4893206143456796 -3.016005657404502 0  0.4893206143456672 3.016005657404504 0  1.803637726349108 0.299965496221715 0  2.186363808548948 1.19179370910711 0  0.5862925020259206 -1.389484383652227 0  0.5786853167469165 1.400819783280915 0  1.931012003672314 -0.3378847336198064 0  -1.830661739532351 -0.09054187811712644 0  -1.092023992765664 -2.808253773249709 0  -1.093470707514635 2.810000782747646 0  -0.2840149693479433 -1.488951668979895 0  -0.7231919945267956 -1.787527341863317 0  0.1348932414478647 -1.495264091964828 0  0.1326807528655188 1.49266329386081 0  -0.9086148386974272 0.6907110432305121 0  -0.5300217049734899 0.9972732523263371 0  -2.90368787912356 0.3389339571891797 0  -3.896020741926842 0.1047029754495263 0  -4.511867339415113 0.6536725199790471 0  3.077096894992674 1.775932098093769 0  0.1784617107629632 -2.019600717809839 0  0.1784617107629536 2.01960071780984 0  0.4677125150790655 4.573600686916437 0  0.4677125150790819 -4.573600686916437 0  1.500161572675018 -0.26680560659813 0  2.959031310560091 0.9321754417130673 0  2.593952340893469 -0.7868527008615089 0  0.330242707443048 1.140277678878908 0  0.3314307209928983 -1.139305386572194 0  1.595614079006178 0.4100069590701885 0  -2.820731061705307 0.6763154233412033 0  -0.3064543675981081 -1.09912822043078 0  4.070064112337561 -2.035393123588735 0  1.514837227793343 -1.137588629305537 0  3.681277464030611 1.462542722839165 0  -1.228472482763023 -2.189302569503713 0  -1.241837683677428 2.199187251146078 0  3.837681181006311 -0.6775734426666076 0  -0.09699349159891207 -1.68756683026592 0  -0.09683814308760558 1.702357075543555 0  1.798494280443416 1.826633775909138 0  -1.547382679755712 0.2167627278851691 0  0.8130266251452507 -0.7611367274213062 0  0.9901935233788386 1.111871219853226 0  1.161182650956509 -0.8571059335309598 0  3.610151947572148 -2.765175268020688 0  -1.867038221670612 -2.312710627732047 0  -1.866921284097868 2.312948279832574 0  3.281769583903559 -1.427307805092577 0  2.677940754872216 1.323511745589773 0  -1.360437568568944 -2.663467576139011 0  -1.373822132098476 2.663044073986345 0  3.135250791284662 -3.264260440560468 0  1.09783265539764 -3.381862419905825 0  1.097660446946735 3.382280165015621 0  -4.018437537727484 2.286813483237772 0  -4.042193795894891 -2.202857319596775 0  -0.5934181657128554 -2.994733655987858 0  -0.5934181657128694 2.994733655987853 0  3.738131310364411 -1.334555007764503 0  2.574024014582063 0.3254234579832728 0  2.968808693163073 0.4709426384690771 0  -0.3213294394466714 1.09283963990581 0  3.224254052760473 3.220175574627619 0  2.081303126821867 0.5032553304402598 0  -2.25646606528433 -1.431978745211533 0  1.123882266420541 -0.1222295624012636 0  1.019928561292196 -4.5449888184318 0  1.019928561292168 4.544988818431791 0  -1.369968765823108 0.5322402918236037 0  -3.166603035629927 1.410430250797139 0  1.295728481428851 2.727588868905241 0  1.296604880888093 -2.724743183159581 0  2.531573050967579 -1.715929876539191 0  -1.188549818795037 3.364732280333711 0  -1.18854981879502 -3.364732280333719 0  -3.794756984931737 -1.443172321423198 0  -2.148480079663176 -3.449546060797235 0  -2.148480079663188 3.449546060797225 0  3.224059664977877 -2.393002622735007 0  -4.030639891763143 0.5599260743216786 0  -4.581638538022878 -0.1166430917507458 0  1.321729024602121 -0.6861409416781986 0  -0.6098268482341466 4.558196336134748 0  -0.6098268482341191 -4.558196336134746 0  -0.4815844828610636 -2.702630013723881 0  -0.4828479077666601 2.702557160345943 0  0.9581541832059649 -0.6177825466404447 0  2.753974226204298 -0.1636744568845708 0  2.143582455611693 -2.182259726955559 0  1.41115100976854 -3.301647450445107 0  1.410552117404962 3.303100249973117 0  0.4898493088843585 -3.449747458089256 0  0.4898493088843416 3.449747458089259 0  4.400750683509779 -1.303436768272636 0  -3.786670696153955 1.525330925642018 0  2.25391814100097 4.000867430919152 0  2.253918141000986 -4.000867430919136 0  0.1290677991433133 -1.148562579142741 0  0.162699739714242 1.125329169665691 0  1.22733678400615 2.42185118316526 0  1.210539840107049 -2.418395933566979 0  2.142115860437947 -0.05351228123228531 0  -2.55387799870028 -2.466986966833799 0  -2.55387799870029 2.466986966833785 0  1.179829903728075 0.5338510092658493 0  3.61834561382986 2.778315430007068 0  -2.679610976448182 -0.9937049282286582 0  0.512869777315005 -3.869861073880326 0  0.5128697773149822 3.869861073880328 0  2.756162562983296 -2.863692874042147 0  -1.93548708496991 -4.223612918119364 0  -1.935487084969925 4.22361291811935 0  -0.8531844243779136 -3.500949384721698 0  -0.8531844243779307 3.50094938472169 0  -1.783685505404069 -3.134171304001827 0  -1.783685505404084 3.134171304001817 0  -1.51157745976497 0.8696172434613404 0  -2.010903643610247 0.908057141681595 0  -2.888085765955616 3.670799373123732 0  -2.888085765955586 -3.670799373123742 0  0.3974203817837044 1.350098198029638 0  0.3974203817837093 -1.350098198029634 0  0.8226086794827494 0.7669562056817373 0  -0.5463486538263211 1.350498375197857 0  1.550113584149858 -2.022607750884399 0  3.335416540035081 1.470409984335961 0  -3.182196360087362 -1.402696593952788 0  2.268129899269032 -1.158051001297785 0  0.005909662030925206 -2.578260317098079 0  0.005909662030913321 2.578260317098079 0  -2.538833050494042 0.6863152087087669 0  1.576963507447428 2.073059327211774 0  1.039813103028609e-15 -4.200220533086717e-16 0  -0.2231087451215127 0.424255723091263 0  -0.02722907228106636 -0.5022106874931858 0  -0.4907398331820332 0.005885108510102877 0  0.4309548639608711 -0.2592969383508671 0  0.2705258072730779 0.4094826076562416 0  -0.4281352532286398 -0.4163348291194192 0  0.5848597239492329 0.1207211178587854 0  0.3173225092374317 -0.5913468559381696 0  0.04388780587304397 0.6697047532222468 0  -0.5767712217080275 0.3431029535083125 0  -0.1815671396377672 -0.2342590692837874 0  0.2957867846242244 0.01881796427910469 0  0.05056162851928817 0.3362846966817822 0  0.1374705362928193 -0.2592969383508673 0  -0.3040655220895755 0.1482732805491791 0  -0.667446543020992 -0.2402267710312843 0  -0.2830615307167503 -0.6475529984847243 0  0.6948229623092294 -0.1291114521105487 0  0.5733954222095652 0.4176260038597991 0  -0.1832948724261507 0.746684195431092 0  -0.512886869546908 0.5721741201495494 0  0.1041831382748481 -0.7112815617269457 0  0.5359319289880918 -0.4889166472035164 0  -0.7157860452875273 0.1407942700041542 0  0.2866128991083371 0.6706248298687356 0  -0.5099078712347069 -0.6322117284469903 0  0.8094283940047101 0.06725609051972375 0  0.3738189038097868 0.2162997834618746 0  -0.3888112846811078 -0.1880211532669423 0  -0.641688501689887 -0.4458859267050495 0  0.7291621631068903 0.2808930983985079 0  0.7203159825670532 -0.3539796968598651 0  -0.1112147361534149 -0.7940515486140155 0  -0.8106982389970416 -0.107007545579984 0  0.5436709968143459 0.610869525210881 0  -0.220153485962887 -0.4368015140368823 0  0.485083096263412 -0.0629087415708334 0  0.1517513765959211 0.1523721512220787 0  -0.2108993552412723 -0.03989309845542684 0  -0.3693674342445863 0.3262438270014191 0  0.1607213623477797 -0.4523528168642744 0  -0.07781001264187762 0.5003928653520088 0  0.4524622151904322 -0.6996563441274674 0  -0.7512441373612214 0.3612792184337747 0  -0.02002974789231286 0.8429459589958606 0  0.3219809283863453 -0.7698693597515655 0  -0.6847509793413761 0.4959619216244157 0  0.1264276408407404 0.8290717896914381 0  -0.3870047434646703 0.7311124329588227 0  0.330860149513879 -0.4048476144024303 0  0.1191938577237527 0.5141711973874445 0  -0.4915959059568036 0.1881343077638824 0  -0.02326173718242783 -0.3276091801461976 0  0.291906068942849 -0.1673625815694613 0  -0.0786278886608467 0.150562162906599 0  0.858912240483918 -0.09341233546624406 0  -0.4046940772834458 -0.7633340062397735 0  -0.1499570961144144 0.3020458173984464 0  -0.03089382475093998 -0.1624368328468081 0  0.1517843942925536 -0.06558697067471957 0  -0.7848687262116623 -0.3255951261258646 0  0.7099794135014803 0.4668903888446439 0  -0.1217819007208956 -0.6269131143261781 0  -0.623661854345288 -0.0937254763305628 0  0.5872315150078636 -0.2510179914645778 0  0.4276361681729289 0.4635605919365101 0  -0.5285765548259868 -0.2770309932911516 0  0.5259309079402085 0.2820278780069233 0  0.8282850683852904 -0.2432324883300306 0  -0.2627012973947354 -0.8213349836709477 0  -0.3075167546479914 0.5800381312397924 0  </DataArray>
</Points>
<Cells>
<DataArray  type="UInt32"  Name="connectivity"  format="ascii">134 270 552  242 270 552  89 267 357  128 191 267  129 192 268  15 16 221  103 176 350  104 177 351  149 323 379  113 212 258  114 213 259  30 339 394  103 210 321  104 211 322  127 202 385  106 217 411  111 216 252  33 249 287  116 209 273  51 52 217  172 240 499  178 263 419  197 347 489  110 186 408  18 19 232  110 186 444  130 210 321  131 211 322  183 246 383  51 217 347  97 158 370  138 189 342  150 234 340  103 210 511  104 211 512  132 263 419  189 342 478  117 249 287  93 212 258  94 213 259  114 213 330  113 212 329  166 333 388  165 332 387  178 449 496  323 379 499  89 298 371  91 215 251  92 216 252  100 239 378  16 221 236  111 216 334  55 56 222  89 264 267  33 249 540  100 239 374  186 277 444  185 277 446  187 278 447  127 385 460  25 225 462  6 226 461  96 218 276  116 273 420  25 225 285  6 226 286  112 227 338  148 233 354  13 14 228  97 158 283  103 176 321  104 177 322  115 231 466  191 267 357  189 476 521  90 246 383  250 365 474  124 254 369  166 248 333  165 247 332  150 339 394  78 290 382  138 189 285  74 231 479  240 401 499  192 306 377  18 232 241  108 243 245  178 223 496  135 277 444  179 263 428  135 277 446  136 278 447  105 234 340  106 217 529  130 210 327  131 211 328  128 191 480  129 192 481  161 320 375  38 303 336  69 304 337  193 273 420  196 358 490  115 231 386  124 250 474  43 300 316  64 299 315  127 202 314  97 208 370  6 7 461  24 25 462  137 222 359  89 264 371  133 242 270  15 221 384  150 234 403  121 315 352  122 316 353  141 381 541  112 227 361  19 232 297  172 240 541  33 34 540  95 305 379  50 347 489  159 313 378  148 233 400  228 418 503  56 222 358  175 239 374  176 350 480  177 351 481  191 323 376  146 264 267  173 239 378  20 21 244  95 227 379  85 250 326  172 305 379  140 230 360  189 229 521  132 263 428  38 39 336  68 69 337  79 306 377  124 313 369  190 385 460  161 253 320  149 227 379  269 342 422  255 386 482  159 250 313  1 30 394  16 17 236  98 293 348  142 193 308  155 221 475  168 265 390  169 266 391  93 269 284  140 361 414  167 234 495  178 223 558  137 205 290  43 44 316  63 64 315  80 265 376  79 266 377  86 255 346  148 230 400  201 319 396  200 318 395  167 234 296  260 365 437  99 256 375  206 315 352  207 316 353  32 33 287  17 236 241  73 74 479  179 228 418  115 302 466  137 222 343  205 290 382  130 265 390  131 266 391  240 381 541  157 293 348  109 360 441  110 251 445  156 335 366  80 323 376  123 325 523  119 337 344  120 336 345  155 243 503  148 230 441  148 301 331  93 212 395  94 213 396  144 212 329  145 213 330  17 18 241  57 358 490  13 228 448  109 221 475  77 394 402  118 342 478  14 228 384  148 331 354  88 242 552  201 319 534  200 318 535  147 216 334  20 244 297  91 215 392  92 216 393  146 215 310  147 216 311  134 270 306  186 244 408  88 243 245  187 278 533  185 277 532  152 260 365  217 411 514  88 245 552  93 269 422  11 12 263  48 282 328  59 281 327  151 255 386  102 333 388  101 332 387  210 327 554  211 328 553  144 212 318  145 213 319  96 218 399  48 49 282  58 59 281  146 215 445  143 218 467  118 276 467  214 283 397  136 223 421  144 271 318  145 272 319  136 223 278  116 307 420  194 307 440  105 234 495  137 205 359  97 283 397  143 218 324  146 274 310  147 275 311  140 236 241  227 361 414  149 227 338  198 310 392  199 311 393  174 256 375  155 243 475  198 310 519  199 311 520  203 337 344  204 336 345  138 225 285  139 226 286  21 244 465  88 301 331  143 269 284  107 359 510  176 265 376  177 266 377  140 230 414  108 418 503  230 360 441  138 225 438  139 226 439  235 325 523  201 254 566  156 214 397  108 243 503  200 253 559  141 233 305  95 230 400  99 320 375  195 326 453  116 209 463  198 247 563  199 248 564  222 359 510  157 255 346  22 23 277  8 9 278  79 270 423  98 234 296  141 381 382  91 279 392  92 280 393  89 338 357  215 251 445  219 286 477  97 208 380  155 221 384  45 356 546  62 355 545  224 335 366  60 327 554  47 328 553  307 440 536  194 307 420  137 238 451  159 250 326  36 239 497  155 228 384  52 217 452  93 284 395  198 247 519  199 248 520  100 313 378  207 356 546  206 355 545  0 2 273  156 214 498  218 276 467  200 253 535  201 254 534  124 250 313  55 222 343  137 238 515  123 325 410  172 379 499  89 298 338  158 219 367  25 26 285  5 6 286  109 221 360  142 229 308  130 281 327  131 282 328  1 77 394  136 252 421  12 263 448  11 263 449  124 254 566  232 241 361  256 412 486  101 289 387  102 288 388  83 271 318  84 272 319  134 246 306  79 270 306  78 233 354  142 193 458  179 263 448  178 263 449  195 453 560  123 253 559  88 242 413  141 233 382  81 274 310  82 275 311  123 253 320  125 247 563  126 248 564  270 309 423  138 258 438  139 259 439  186 277 465  183 246 349  19 20 297  179 228 448  221 236 360  117 249 341  153 298 371  95 227 414  237 394 402  125 247 332  126 248 333  189 285 476  45 46 356  61 62 355  9 278 496  22 277 465  139 259 404  85 365 437  139 286 477  132 257 383  173 341 540  186 244 465  112 232 361  172 305 541  144 279 454  145 280 455  150 339 340  335 459 483  209 283 539  160 339 340  218 324 399  115 386 482  154 220 409  133 270 309  50 51 347  108 245 551  5 286 557  293 482 493  118 269 342  26 285 476  71 412 486  36 239 415  74 231 466  0 273 500  213 319 396  212 318 395  85 250 365  110 251 444  157 348 460  72 479 486  193 308 500  249 341 540  2 273 405  28 29 308  88 243 301  86 255 507  78 233 382  113 261 329  114 262 330  111 257 334  7 8 533  23 24 532  191 376 480  192 377 481  158 283 539  324 399 562  215 310 392  216 311 393  114 447 555  113 446 556  110 264 371  205 381 382  118 478 516  128 267 469  129 268 470  157 293 482  246 306 433  182 289 387  181 288 388  95 230 414  142 276 429  240 381 561  198 279 392  199 280 393  84 319 534  83 318 535  94 312 396  219 286 557  111 419 558  30 31 339  193 273 500  118 276 516  132 257 419  119 304 373  120 303 372  153 244 297  200 284 395  157 346 460  86 325 507  148 301 441  150 237 403  90 268 433  219 367 557  105 317 340  154 220 411  81 310 519  82 311 520  352 511 549  353 512 550  97 260 380  151 235 507  80 265 401  31 339 432  115 482 493  47 48 328  59 60 327  121 299 315  122 300 316  189 229 478  142 276 516  99 256 544  28 308 521  29 308 500  56 57 358  143 269 467  109 301 475  7 461 533  24 462 532  112 298 338  154 411 514  72 73 479  155 228 503  233 305 400  158 219 370  114 262 447  113 261 446  146 264 445  180 402 471  111 257 419  98 296 348  143 324 325  237 402 471  197 282 391  196 281 390  137 343 515  136 252 473  112 298 389  195 317 459  151 235 368  192 306 433  174 304 373  175 303 372  243 301 475  205 359 381  134 246 349  224 335 459  119 304 337  120 303 336  121 299 363  122 300 364  140 241 361  110 264 445  153 298 389  160 339 432  144 329 454  145 330 455  150 237 394  127 314 522  133 309 362  223 278 496  35 36 497  98 234 403  105 317 459  142 229 516  97 260 397  127 296 348  90 268 424  111 252 421  178 419 558  235 325 507  138 258 422  99 368 544  130 281 390  131 282 391  140 236 360  94 259 404  84 427 505  83 426 506  118 269 467  152 260 380  211 356 512  210 355 511  197 391 407  196 390 406  229 308 521  151 255 507  91 279 454  92 280 455  90 257 383  159 341 378  149 338 357  107 359 381  202 440 536  86 324 325  185 446 556  187 447 555  147 268 424  53 238 452  168 240 401  113 258 438  114 259 439  182 299 363  181 300 364  53 238 515  224 494 495  368 425 544  175 239 415  163 344 526  164 345 527  144 271 430  145 272 431  245 349 552  79 266 423  90 246 433  160 317 340  201 312 396  188 479 486  3 367 405  217 347 529  112 232 389  141 305 541  130 265 537  131 266 538  133 362 464  192 268 433  173 239 497  34 35 540  54 55 343  4 367 557  103 511 549  104 512 550  76 77 402  146 274 469  147 275 470  149 323 357  117 287 468  168 265 401  169 391 407  168 390 406  344 526 542  345 527 543  90 257 424  35 497 540  209 273 405  125 332 434  126 333 435  96 276 429  99 320 368  95 305 400  80 401 499  133 242 565  3 4 367  98 403 471  156 260 397  191 323 357  214 283 463  232 297 389  190 399 562  162 254 369  87 307 436  168 240 561  71 72 486  208 398 404  128 350 480  129 351 481  81 294 442  82 295 443  127 296 522  87 436 498  94 398 404  23 277 532  8 278 533  206 352 511  207 353 512  195 459 483  160 287 468  130 321 537  131 322 538  134 349 552  174 256 412  78 290 409  115 302 493  292 427 505  291 426 506  209 283 463  157 255 482  165 247 491  166 248 492  91 251 472  92 252 473  173 341 378  161 253 506  162 254 505  220 362 464  10 449 496  184 354 450  245 349 551  257 334 424  14 15 384  74 75 466  222 358 510  288 416 456  289 417 457  214 436 463  81 294 491  82 295 492  101 289 542  102 288 543  75 302 466  75 76 528  184 331 354  127 348 460  75 302 528  27 476 521  125 271 430  126 272 431  94 312 398  69 70 531  37 38 530  156 260 437  320 368 523  224 366 494  41 416 456  66 417 457  220 362 411  135 446 472  136 447 473  69 304 531  38 303 530  78 354 450  160 287 432  93 258 422  237 403 471  153 244 408  83 271 426  84 272 427  196 281 490  197 282 489  76 402 528  91 261 472  92 262 473  146 267 469  147 268 470  167 296 522  128 274 469  129 275 470  169 266 423  52 53 452  64 65 518  42 43 517  151 386 513  137 290 451  53 54 515  180 302 493  64 299 518  43 300 517  143 284 410  167 494 495  147 334 424  165 363 387  166 364 388  87 314 494  125 271 434  126 272 435  144 279 430  145 280 431  66 67 457  40 41 456  116 307 436  202 314 536  32 287 432  81 274 442  82 275 443  208 404 477  176 265 537  177 266 538  135 444 472  152 312 398  100 313 369  31 32 432  36 37 415  70 71 412  154 290 409  188 486 544  161 291 506  162 292 505  65 66 417  41 42 416  2 3 405  170 294 442  171 295 443  100 369 374  162 369 374  151 425 513  163 291 426  164 292 427  98 293 471  87 314 536  181 288 416  182 289 417  152 365 474  256 486 544  109 301 441  91 261 454  92 262 455  165 294 491  166 295 492  132 383 428  204 288 543  203 289 542  106 362 411  162 372 374  161 373 375  143 325 410  208 380 398  139 404 477  128 274 484  129 275 485  176 321 537  177 322 538  182 299 518  181 300 517  88 331 413  101 526 542  102 527 543  107 381 561  57 58 490  49 50 489  85 326 483  332 434 526  333 435 527  261 446 472  262 447 473  138 342 422  62 63 545  44 45 546  180 302 528  175 303 530  174 304 531  58 281 490  49 282 489  194 429 440  204 288 456  203 289 457  12 13 448  10 11 449  67 68 501  39 40 502  60 61 554  46 47 553  152 380 398  159 341 453  367 405 539  87 366 494  123 320 523  156 335 437  117 453 560  21 22 465  163 291 487  164 292 488  214 436 498  26 27 476  156 366 498  195 317 560  198 279 563  199 280 564  161 291 524  162 292 525  251 444 472  190 346 562  163 344 487  164 345 488  200 284 559  182 363 387  181 364 388  153 297 389  96 385 440  224 459 495  96 429 440  170 294 509  171 295 508  180 293 471  183 383 428  9 10 496  154 290 451  261 329 454  262 330 455  0 29 500  116 436 463  180 402 528  180 293 493  128 350 484  129 351 485  68 337 501  39 336 502  190 346 460  85 335 437  96 385 399  153 371 408  309 362 504  169 309 504  117 341 453  86 346 562  154 451 514  197 347 529  27 28 521  152 312 474  174 373 375  175 372 374  169 309 423  208 370 477  183 349 551  170 352 549  171 353 550  171 353 508  170 352 509  165 294 547  166 295 548  160 317 468  4 5 557  85 335 483  184 331 413  235 368 523  119 344 487  120 345 488  238 451 514  159 326 453  173 497 540  195 326 483  196 358 510  206 355 511  207 356 512  110 371 408  170 350 484  171 351 485  80 323 499  167 314 522  151 368 425  202 385 440  271 426 434  272 427 435  167 314 494  105 459 495  44 316 546  63 315 545  206 315 545  207 316 546  122 353 508  121 352 509  87 366 498  203 337 501  204 336 502  229 478 516  201 312 566  190 385 399  162 372 525  161 373 524  219 370 477  184 450 464  211 356 553  210 355 554  165 363 547  166 364 548  185 462 532  187 461 533  86 324 562  179 418 428  87 307 536  111 421 558  168 406 561  101 332 526  102 333 527  170 350 549  171 351 550  121 363 547  122 364 548  169 407 504  142 429 458  181 416 517  182 417 518  54 343 515  203 344 542  204 345 543  65 417 518  42 416 517  274 442 484  275 443 485  78 409 450  193 420 458  163 426 434  164 427 435  203 457 501  204 456 502  164 435 527  163 434 526  175 415 530  174 412 531  113 438 556  114 439 555  106 362 504  37 415 530  70 412 531  119 373 524  120 372 525  220 450 464  279 430 563  280 431 564  220 409 450  176 376 480  177 377 481  46 356 553  61 355 554  103 350 549  104 351 550  171 443 485  170 442 484  196 406 510  217 452 514  194 429 458  107 406 510  188 479 513  284 410 559  238 452 514  121 509 547  122 508 548  197 407 529  225 462 556  226 461 555  231 479 513  187 461 555  185 462 556  106 407 529  106 407 504  183 418 428  231 386 513  223 421 558  294 509 547  295 508 548  125 430 563  126 431 564  194 420 458  67 457 501  40 456 502  225 438 556  226 439 555  107 406 561  108 418 551  81 491 519  82 492 520  123 410 559  133 464 565  183 418 551  83 506 535  84 505 534  291 487 524  292 488 525  184 413 565  158 367 539  188 425 544  119 487 524  120 488 525  184 464 565  317 468 560  188 425 513  242 413 565  247 491 519  248 492 520  117 468 560  253 506 535  254 505 534  209 405 539  312 474 566  124 474 566  4 602 629  17 601 628  579 595 604  574 595 604  573 596 603  578 596 603  572 580 605  570 582 606  11 12 588  26 27 590  9 10 587  23 24 589  14 15 591  6 7 592  577 588 607  575 589 608  569 589 608  576 587 609  574 585 594  573 584 593  588 607 638  587 609 638  4 5 602  16 17 601  568 607 638  568 609 638  572 580 618  570 582 619  573 584 603  574 585 604  27 590 599  23 589 600  15 591 601  6 592 602  586 602 629  583 601 628  12 588 614  24 589 613  7 592 615  26 590 610  14 591 611  9 587 612  27 28 599  22 23 600  15 16 601  5 6 602  572 595 605  570 596 606  575 590 617  571 590 617  572 592 618  576 592 618  570 591 619  577 591 619  571 590 632  569 589 630  572 592 633  570 591 631  575 590 610  576 587 612  577 591 611  567 606 622  567 605 622  575 589 613  577 588 614  576 592 615  10 587 616  11 588 616  596 631 634  595 633 635  19 593 597  2 594 598  570 596 631  572 595 633  18 19 597  2 3 598  581 617 621  582 606 622  580 605 622  573 593 597  574 594 598  567 606 626  567 605 627  19 20 593  0 2 594  585 594 623  584 593 624  590 599 632  589 600 630  592 602 633  591 601 631  582 607 619  581 608 617  580 609 618  571 617 621  573 597 634  574 598 635  578 606 626  579 605 627  579 595 605  578 596 606  571 604 621  579 604 621  578 603 620  569 603 620  24 25 613  12 13 614  7 8 615  25 26 610  8 9 612  13 14 611  586 598 635  583 597 634  582 607 625  581 608 620  569 608 620  584 603 630  585 604 632  0 594 623  20 593 624  581 626 627  25 610 613  13 611 614  8 612 615  568 607 625  569 603 630  571 604 632  10 11 616  575 610 613  577 611 614  576 612 615  28 29 636  21 22 637  583 631 634  586 633 635  17 18 628  3 4 629  568 609 625  580 609 625  20 21 624  0 29 623  573 596 634  574 595 635  28 599 636  22 600 637  3 598 629  18 597 628  583 597 628  586 598 629  585 599 636  584 600 637  567 626 627  575 608 617  577 607 619  576 609 618  584 600 630  585 599 632  586 602 633  583 601 631  581 620 626  581 621 627  587 616 638  588 616 638  582 622 625  578 620 626  579 621 627  580 622 625  585 623 636  584 624 637  29 623 636  21 624 637  </DataArray>
<DataArray  type="UInt32"  Name="offsets"  format="ascii">3 6 9 12 15 18 21 24 27 30 33 36 39 42 45 48 51 54 57 60 63 66 69 72 75 78 81 84 87 90 93 96 99 102 105 108 111 114 117 120 123 126 129 132 135 138 141 144 147 150 153 156 159 162 165 168 171 174 177 180 183 186 189 192 195 198 201 204 207 210 213 216 219 222 225 228 231 234 237 240 243 246 249 252 255 258 261 264 267 270 273 276 279 282 285 288 291 294 297 300 303 306 309 312 315 318 321 324 327 330 333 336 339 342 345 348 351 354 357 360 363 366 369 372 375 378 381 384 387 390 393 396 399 402 405 408 411 414 417 420 423 426 429 432 435 438 441 444 447 450 453 456 459 462 465 468 471 474 477 480 483 486 489 492 495 498 501 504 507 510 513 516 519 522 525 528 531 534 537 540 543 546 549 552 555 558 561 564 567 570 573 576 579 582 585 588 591 594 597 600 603 606 609 612 615 618 621 624 627 630 633 636 639 642 645 648 651 654 657 660 663 666 669 672 675 678 681 684 687 690 693 696 699 702 705 708 711 714 717 720 723 726 729 732 735 738 741 744 747 750 753 756 759 762 765 768 771 774 777 780 783 786 789 792 795 798 801 804 807 810 813 816 819 822 825 828 831 834 837 840 843 846 849 852 855 858 861 864 867 870 873 876 879 882 885 888 891 894 897 900 903 906 909 912 915 918 921 924 927 930 933 936 939 942 945 948 951 954 957 960 963 966 969 972 975 978 981 984 987 990 993 996 999 1002 1005 1008 1011 1014 1017 1020 1023 1026 1029 1032 1035 1038 1041 1044 1047 1050 1053 1056 1059 1062 1065 1068 1071 1074 1077 1080 1083 1086 1089 1092 1095 1098 1101 1104 1107 1110 1113 1116 1119 1122 1125 1128 1131 1134 1137 1140 1143 1146 1149 1152 1155 1158 1161 1164 1167 1170 1173 1176 1179 1182 1185 1188 1191 1194 1197 1200 1203 1206 1209 1212 1215 1218 1221 1224 1227 1230 1233 1236 1239 1242 1245 1248 1251 1254 1257 1260 1263 1266 1269 1272 1275 1278 1281 1284 1287 1290 1293 1296 1299 1302 1305 1308 1311 1314 1317 1320 1323 1326 1329 1332 1335 1338 1341 1344 1347 1350 1353 1356 1359 1362 1365 1368 1371 1374 1377 1380 1383 1386 1389 1392 1395 1398 1401 1404 1407 1410 1413 1416 1419 1422 1425 1428 1431 1434 1437 1440 1443 1446 1449 1452 1455 1458 1461 1464 1467 1470 1473 1476 1479 1482 1485 1488 1491 1494 1497 1500 1503 1506 1509 1512 1515 1518 1521 1524 1527 1530 1533 1536 1539 1542 1545 1548 1551 1554 1557 1560 1563 1566 1569 1572 1575 1578 1581 1584 1587 1590 1593 1596 1599 1602 1605 1608 1611 1614 1617 1620 1623 1626 1629 1632 1635 1638 1641 1644 1647 1650 1653 1656 1659 1662 1665 1668 1671 1674 1677 1680 1683 1686 1689 1692 1695 1698 1701 1704 1707 1710 1713 1716 1719 1722 1725 1728 1731 1734 1737 1740 1743 1746 1749 1752 1755 1758 1761 1764 1767 1770 1773 1776 1779 1782 1785 1788 1791 1794 1797 1800 1803 1806 1809 1812 1815 1818 1821 1824 1827 1830 1833 1836 1839 1842 1845 1848 1851 1854 1857 1860 1863 1866 1869 1872 1875 1878 1881 1884 1887 1890 1893 1896 1899 1902 1905 1908 1911 1914 1917 1920 1923 1926 1929 1932 1935 1938 1941 1944 1947 1950 1953 1956 1959 1962 1965 1968 1971 1974 1977 1980 1983 1986 1989 1992 1995 1998 2001 2004 2007 2010 2013 2016 2019 2022 2025 2028 2031 2034 2037 2040 2043 2046 2049 2052 2055 2058 2061 2064 2067 2070 2073 2076 2079 2082 2085 2088 2091 2094 2097 2100 2103 2106 2109 2112 2115 2118 2121 2124 2127 2130 2133 2136 2139 2142 2145 2148 2151 2154 2157 2160 2163 2166 2169 2172 2175 2178 2181 2184 2187 2190 2193 2196 2199 2202 2205 2208 2211 2214 2217 2220 2223 2226 2229 2232 2235 2238 2241 2244 2247 2250 2253 2256 2259 2262 2265 2268 2271 2274 2277 2280 2283 2286 2289 2292 2295 2298 2301 2304 2307 2310 2313 2316 2319 2322 2325 2328 2331 2334 2337 2340 2343 2346 2349 2352 2355 2358 2361 2364 2367 2370 2373 2376 2379 2382 2385 2388 2391 2394 2397 2400 2403 2406 2409 2412 2415 2418 2421 2424 2427 2430 2433 2436 2439 2442 2445 2448 2451 2454 2457 2460 2463 2466 2469 2472 2475 2478 2481 2484 2487 2490 2493 2496 2499 2502 2505 2508 2511 2514 2517 2520 2523 2526 2529 2532 2535 2538 2541 2544 2547 2550 2553 2556 2559 2562 2565 2568 2571 2574 2577 2580 2583 2586 2589 2592 2595 2598 2601 2604 2607 2610 2613 2616 2619 2622 2625 2628 2631 2634 2637 2640 2643 2646 2649 2652 2655 2658 2661 2664 2667 2670 2673 2676 2679 2682 2685 2688 2691 2694 2697 2700 2703 2706 2709 2712 2715 2718 2721 2724 2727 2730 2733 2736 2739 2742 2745 2748 2751 2754 2757 2760 2763 2766 2769 2772 2775 2778 2781 2784 2787 2790 2793 2796 2799 2802 2805 2808 2811 2814 2817 2820 2823 2826 2829 2832 2835 2838 2841 2844 2847 2850 2853 2856 2859 2862 2865 2868 2871 2874 2877 2880 2883 2886 2889 2892 2895 2898 2901 2904 2907 2910 2913 2916 2919 2922 2925 2928 2931 2934 2937 2940 2943 2946 2949 2952 2955 2958 2961 2964 2967 2970 2973 2976 2979 2982 2985 2988 2991 2994 2997 3000 3003 3006 3009 3012 3015 3018 3021 3024 3027 3030 3033 3036 3039 3042 3045 3048 3051 3054 3057 3060 3063 3066 3069 3072 3075 3078 3081 3084 3087 3090 3093 3096 3099 3102 3105 3108 3111 3114 3117 3120 3123 3126 3129 3132 3135 3138 3141 3144 3147 3150 3153 3156 3159 3162 3165 3168 3171 3174 3177 3180 3183 3186 3189 3192 3195 3198 3201 3204 3207 3210 3213 3216 3219 3222 3225 3228 3231 3234 3237 3240 3243 3246 3249 3252 3255 3258 3261 3264 3267 3270 3273 3276 3279 3282 3285 3288 3291 3294 3297 3300 3303 3306 3309 3312 3315 3318 3321 3324 3327 3330 3333 3336 3339 3342 3345 3348 3351 3354 3357 3360 3363 3366 3369 3372 3375 3378 3381 3384 3387 3390 3393 3396 3399 3402 3405 3408 3411 3414 3417 3420 3423 3426 3429 3432 3435 3438 3441 3444 3447 3450 3453 3456 3459 3462 3465 3468 3471 3474 3477 3480 3483 3486 3489 3492 3495 3498 3501 3504 3507 3510 3513 3516 3519 3522 3525 3528 3531 3534 3537 3540 3543 3546 3549 3552 3555 3558 3561 3564 3567 3570 3573 3576 3579 3582 3585 3588 3591 3594 3597 3600 3603 3606 3609 3612 3615 3618 3621 3624 3627 3630 3633 3636 3639 3642 3645 3648 3651 3654 3657 3660 3663 3666 3669 3672 3675 3678 3681 </DataArray>
<DataArray  type="UInt8"  Name="types"  format="ascii">5 5 5 5 5 5 5 5 5 5 5 5 5 5 5 5 5 5 5 5 5 5 5 5 5 5 5 5 5 5 5 5 5 5 5 5 5 5 5 5 5 5 5 5 5 5 5 5 5 5 5 5 5 5 5 5 5 5 5 5 5 5 5 5 5 5 5 5 5 5 5 5 5 5 5 5 5 5 5 5 5 5 5 5 5 5 5 5 5 5 5 5 5 5 5 5 5 5 5 5 5 5 5 5 5 5 5 5 5 5 5 5 5 5 5 5 5 5 5 5 5 5 5 5 5 5 5 5 5 5 5 5 5 5 5 5 5 5 5 5 5 5 5 5 5 5 5 5 5 5 5 5 5 5 5 5 5 5 5 5 5 5 5 5 5 5 5 5 5 5 5 5 5 5 5 5 5 5 5 5 5 5 5 5 5 5 5 5 5 5 5 5 5 5 5 5 5 5 5 5 5 5 5 5 5 5 5 5 5 5 5 5 5 5 5 5 5 5 5 5 5 5 5 5 5 5 5 5 5 5 5 5 5 5 5 5 5 5 5 5 5 5 5 5 5 5 5 5 5 5 5 5 5 5 5 5 5 5 5 5 5 5 5 5 5 5 5 5 5 5 5 5 5 5 5 5 5 5 5 5 5 5 5 5 5 5 5 5 5 5 5 5 5 5 5 5 5 5 5 5 5 5 5 5 5 5 5 5 5 5 5 5 5 5 5 5 5 5 5 5 5 5 5 5 5 5 5 5 5 5 5 5 5 5 5 5 5 5 5 5 5 5 5 5 5 5 5 5 5 5 5 5 5 5 5 5 5 5 5 5 5 5 5 5 5 5 5 5 5 5 5 5 5 5 5 5 5 5 5 5 5 5 5 5 5 5 5 5 5 5 5 5 5 5 5 5 5 5 5 5 5 5 5 5 5 5 5 5 5 5 5 5 5 5 5 5 5 5 5 5 5 5 5 5 5 5 5 5 5 5 5 5 5 5 5 5 5 5 5 5 5 5 5 5 5 5 5 5 5 5 5 5 5 5 5 5 5 5 5 5 5 5 5 5 5 5 5 5 5 5 5 5 5 5 5 5 5 5 5 5 5 5 5 5 5 5 5 5 5 5 5 5 5 5 5 5 5 5 5 5 5 5 5 5 5 5 5 5 5 5 5 5 5 5 5 5 5 5 5 5 5 5 5 5 5 5 5 5 5 5 5 5 5 5 5 5 5 5 5 5 5 5 5 5 5 5 5 5 5 5 5 5 5 5 5 5 5 5 5 5 5 5 5 5 5 5 5 5 5 5 5 5 5 5 5 5 5 5 5 5 5 5 5 5 5 5 5 5 5 5 5 5 5 5 5 5 5 5 5 5 5 5 5 5 5 5 5 5 5 5 5 5 5 5 5 5 5 5 5 5 5 5 5 5 5 5 5 5 5 5 5 5 5 5 5 5 5 5 5 5 5 5 5 5 5 5 5 5 5 5 5 5 5 5 5 5 5 5 5 5 5 5 5 5 5 5 5 5 5 5 5 5 5 5 5 5 5 5 5 5 5 5 5 5 5 5 5 5 5 5 5 5 5 5 5 5 5 5 5 5 5 5 5 5 5 5 5 5 5 5 5 5 5 5 5 5 5 5 5 5 5 5 5 5 5 5 5 5 5 5 5 5 5 5 5 5 5 5 5 5 5 5 5 5 5 5 5 5 5 5 5 5 5 5 5 5 5 5 5 5 5 5 5 5 5 5 5 5 5 5 5 5 5 5 5 5 5 5 5 5 5 5 5 5 5 5 5 5 5 5 5 5 5 5 5 5 5 5 5 5 5 5 5 5 5 5 5 5 5 5 5 5 5 5 5 5 5 5 5 5 5 5 5 5 5 5 5 5 5 5 5 5 5 5 5 5 5 5 5 5 5 5 5 5 5 5 5 5 5 5 5 5 5 5 5 5 5 5 5 5 5 5 5 5 5 5 5 5 5 5 5 5 5 5 5 5 5 5 5 5 5 5 5 5 5 5 5 5 5 5 5 5 5 5 5 5 5 5 5 5 5 5 5 5 5 5 5 5 5 5 5 5 5 5 5 5 5 5 5 5 5 5 5 5 5 5 5 5 5 5 5 5 5 5 5 5 5 5 5 5 5 5 5 5 5 5 5 5 5 5 5 5 5 5 5 5 5 5 5 5 5 5 5 5 5 5 5 5 5 5 5 5 5 5 5 5 5 5 5 5 5 5 5 5 5 5 5 5 5 5 5 5 5 5 5 5 5 5 5 5 5 5 5 5 5 5 5 5 5 5 5 5 5 5 5 5 5 5 5 5 5 5 5 5 5 5 5 5 5 5 5 5 5 5 5 5 5 5 5 5 5 5 5 5 5 5 5 5 5 5 5 5 5 5 5 5 5 5 5 5 5 5 5 5 5 5 5 5 5 5 5 5 5 5 5 5 5 5 5 5 5 5 5 5 5 5 5 5 5 5 5 5 5 5 5 5 5 5 5 5 5 5 5 5 5 5 5 5 5 5 5 5 5 5 5 5 5 5 5 5 5 5 5 5 5 5 5 5 5 5 5 5 5 5 5 5 5 5 5 5 5 5 5 5 5 5 5 5 5 5 5 5 5 5 5 5 5 5 5 5 5 5 5 5 5 5 5 5 5 5 5 5 5 5 5 5 5 5 5 5 5 5 5 5 5 5 5 5 5 5 5 5 5 5 5 5 5 5 5 5 5 5 5 5 5 5 5 5 5 5 5 5 5 5 5 5 5 5 5 5 5 5 5 5 5 5 5 </DataArray>
</Cells>
<PointData  Vectors="f_48"> 
<DataArray  type="Float64"  Name="f_48"  NumberOfComponents="3" format="ascii">3.5499163416242957e+11 1.7290844796354976e+08 0.0000000000000000e+00  1.7763778949912656e+11 9.9226003135305703e+07 0.0000000000000000e+00  3.4736522065420325e+11 7.6159155996589691e+10 0.0000000000000000e+00  3.2226922861227344e+11 1.4925189141109131e+11 0.0000000000000000e+00  2.8284039645561011e+11 2.1456756381399786e+11 0.0000000000000000e+00  2.2964016071185516e+11 2.7027835822240555e+11 0.0000000000000000e+00  1.6685294407914130e+11 3.1528306881262860e+11 0.0000000000000000e+00  9.4868463288794540e+10 3.4257516861635590e+11 0.0000000000000000e+00  1.8957804040551502e+10 3.5438227576649481e+11 0.0000000000000000e+00  -5.7254302806511894e+10 3.5077220578377795e+11 0.0000000000000000e+00  -1.3154355512807243e+11 3.2985259005456024e+11 0.0000000000000000e+00  -1.9959223047960388e+11 2.9419849501933704e+11 0.0000000000000000e+00  -2.5787770369023889e+11 2.4461527488269046e+11 0.0000000000000000e+00  -3.0425394239713019e+11 1.8272329116184644e+11 0.0000000000000000e+00  -3.3696285349788123e+11 1.1402644708922113e+11 0.0000000000000000e+00  -3.5416141720451007e+11 3.8417895841371857e+10 0.0000000000000000e+00  -3.5382377407769263e+11 -3.8117479544540405e+10 0.0000000000000000e+00  -3.3683654973297308e+11 -1.1371416389401631e+11 0.0000000000000000e+00  -3.0487442041121570e+11 -1.8341999975933847e+11 0.0000000000000000e+00  -2.5842445150665543e+11 -2.4467047332687390e+11 0.0000000000000000e+00  -1.9925278351861166e+11 -2.9416276140120447e+11 0.0000000000000000e+00  -1.3157003863675925e+11 -3.2963182330218274e+11 0.0000000000000000e+00  -5.7183508883126785e+10 -3.5067790769828949e+11 0.0000000000000000e+00  1.8959287172437031e+10 -3.5564976121646851e+11 0.0000000000000000e+00  9.5282368014659317e+10 -3.4265276634388440e+11 0.0000000000000000e+00  1.6635872794889975e+11 -3.1457686218767810e+11 0.0000000000000000e+00  2.3010528614850284e+11 -2.7104139209153958e+11 0.0000000000000000e+00  2.8321413216536859e+11 -2.1534415087080780e+11 0.0000000000000000e+00  3.2213967877596100e+11 -1.4897573430381546e+11 0.0000000000000000e+00  3.4646567645357294e+11 -7.6526251781545151e+10 0.0000000000000000e+00  1.7845465839808224e+11 2.3579465760322487e+10 0.0000000000000000e+00  1.7391645226400089e+11 4.5486272361279694e+10 0.0000000000000000e+00  1.6558381390615054e+11 6.7814396643104218e+10 0.0000000000000000e+00  1.5712126871283014e+11 8.8113017744928696e+10 0.0000000000000000e+00  1.4255600413406030e+11 1.0624182562934117e+11 0.0000000000000000e+00  1.2894215715627769e+11 1.2552893056811327e+11 0.0000000000000000e+00  1.1168355171966945e+11 1.4017278742235855e+11 0.0000000000000000e+00  9.2982892860554474e+10 1.5332116998716470e+11 0.0000000000000000e+00  7.2630388273425323e+10 1.6466471615083331e+11 0.0000000000000000e+00  5.1681381820844971e+10 1.7100207793298236e+11 0.0000000000000000e+00  2.8494986945159962e+10 1.7744752399795325e+11 0.0000000000000000e+00  5.6922316518261843e+09 1.7948497752855038e+11 0.0000000000000000e+00  -1.7215060169874992e+10 1.7859590798927280e+11 0.0000000000000000e+00  -4.0233386487399086e+10 1.7543032889179544e+11 0.0000000000000000e+00  -6.0933669248622597e+10 1.6801440804679196e+11 0.0000000000000000e+00  -8.3475891998436020e+10 1.5917060187481210e+11 0.0000000000000000e+00  -1.0227490876871013e+11 1.4729733088096896e+11 0.0000000000000000e+00  -1.2106397188809323e+11 1.3284987344798589e+11 0.0000000000000000e+00  -1.3685211247603127e+11 1.1632505979472209e+11 0.0000000000000000e+00  -1.4961756881486301e+11 9.8220629981768219e+10 0.0000000000000000e+00  -1.6211394080280249e+11 7.7742710604939423e+10 0.0000000000000000e+00  -1.7013417539200433e+11 5.5942618102972946e+10 0.0000000000000000e+00  -1.7574512886539664e+11 3.4905003180216949e+10 0.0000000000000000e+00  -1.7917231069950659e+11 1.1442439670411673e+10 0.0000000000000000e+00  -1.7912685948256424e+11 -1.1703114321575817e+10 0.0000000000000000e+00  -1.7554657280010776e+11 -3.4696128629431129e+10 0.0000000000000000e+00  -1.7013170023699274e+11 -5.6197843531608093e+10 0.0000000000000000e+00  -1.6207779872414093e+11 -7.7888117479911026e+10 0.0000000000000000e+00  -1.4977093887842435e+11 -9.8223426439600143e+10 0.0000000000000000e+00  -1.3681288428831007e+11 -1.1637212218748863e+11 0.0000000000000000e+00  -1.2107346962658821e+11 -1.3283899913201431e+11 0.0000000000000000e+00  -1.0227419512546806e+11 -1.4729890631828815e+11 0.0000000000000000e+00  -8.3475795991661621e+10 -1.5917006183336938e+11 0.0000000000000000e+00  -6.0933639363366348e+10 -1.6801430002150351e+11 0.0000000000000000e+00  -4.0233400344965981e+10 -1.7543023208856479e+11 0.0000000000000000e+00  -1.7215009541056675e+10 -1.7859578501451733e+11 0.0000000000000000e+00  5.6921378355182695e+09 -1.7948501345444998e+11 0.0000000000000000e+00  2.8495002989748615e+10 -1.7744720318570395e+11 0.0000000000000000e+00  5.1682762950436783e+10 -1.7100247552719019e+11 0.0000000000000000e+00  7.2618460369285538e+10 -1.6467302628707364e+11 0.0000000000000000e+00  9.2967453625303238e+10 -1.5343863304557150e+11 0.0000000000000000e+00  1.1209095587334384e+11 -1.4053188897092029e+11 0.0000000000000000e+00  1.2886712624651909e+11 -1.2559823678780008e+11 0.0000000000000000e+00  1.4249438986577725e+11 -1.0625217595087486e+11 0.0000000000000000e+00  1.5684747853489713e+11 -8.7930279564537796e+10 0.0000000000000000e+00  1.6647823545665375e+11 -6.7533643282362358e+10 0.0000000000000000e+00  1.7375242985465604e+11 -4.5448504407614738e+10 0.0000000000000000e+00  1.7843357354407431e+11 -2.3556844738211960e+10 0.0000000000000000e+00  -2.9610160879749243e+11 4.6791732414164937e+08 0.0000000000000000e+00  -2.4458365062324429e+11 1.8563484873739069e+11 0.0000000000000000e+00  -2.4260522320475922e+11 -1.8415567617146744e+11 0.0000000000000000e+00  -8.5110938443340363e+10 -3.0036845785022681e+11 0.0000000000000000e+00  -8.5137479912994919e+10 3.0034112865065582e+11 0.0000000000000000e+00  1.1509415044602670e+11 -2.9680468605739612e+11 0.0000000000000000e+00  1.1510224410094849e+11 2.9682080162257019e+11 0.0000000000000000e+00  2.6922857566206293e+11 1.6270447220847037e+11 0.0000000000000000e+00  2.7264616963327017e+11 -1.6142825692920291e+11 0.0000000000000000e+00  3.7209892555699561e+11 4.0308369017532112e+10 0.0000000000000000e+00  -3.7022562129502582e+11 9.6751330635226120e+10 0.0000000000000000e+00  -2.5246264055667291e+11 -3.0230615785618170e+11 0.0000000000000000e+00  -2.4866650160352551e+11 2.9709607694014319e+11 0.0000000000000000e+00  -2.6802328269585007e+10 -3.9340914926287616e+11 0.0000000000000000e+00  -2.6854389196481030e+10 3.9336253262742615e+11 0.0000000000000000e+00  2.1251749522300827e+11 -3.3075895180627313e+11 0.0000000000000000e+00  2.2091650455334058e+11 3.2608534874108612e+11 0.0000000000000000e+00  -3.6679128738701392e+11 -1.2021231272827316e+11 0.0000000000000000e+00  3.7589305613841296e+11 -1.2682608175683835e+11 0.0000000000000000e+00  3.4045741473059802e+11 2.1740196812514291e+11 0.0000000000000000e+00  2.5483419953476968e+11 -3.3146855759135780e+10 0.0000000000000000e+00  1.5907755555744766e+11 -1.8698430004953458e+11 0.0000000000000000e+00  1.5932042418969193e+11 1.8697139847941122e+11 0.0000000000000000e+00  1.3203399321657724e+10 -2.4200115139544385e+11 0.0000000000000000e+00  1.3203493297463472e+10 2.4200087430428131e+11 0.0000000000000000e+00  -1.4022781865219678e+11 -2.0017066144229156e+11 0.0000000000000000e+00  -1.4022781356250894e+11 2.0017019100528745e+11 0.0000000000000000e+00  2.6009195148533444e+11 5.1868976779457611e+10 0.0000000000000000e+00  -2.2934854069341983e+11 7.9790028171932495e+10 0.0000000000000000e+00  -2.2940084011623669e+11 -8.0079816120427750e+10 0.0000000000000000e+00  -3.7123385063096277e+11 1.6369984076808591e+11 0.0000000000000000e+00  -4.0728652763407013e+11 4.0632180640280288e+08 0.0000000000000000e+00  -1.5072323474637753e+11 -3.7896860093114435e+11 0.0000000000000000e+00  -1.5265771915573129e+11 3.7762415903964014e+11 0.0000000000000000e+00  -3.2606312802845776e+11 -2.4539434669963538e+11 0.0000000000000000e+00  1.0867491102760664e+11 -3.9308812087755591e+11 0.0000000000000000e+00  1.0864762306897346e+11 3.9302468823190912e+11 0.0000000000000000e+00  2.0378757588734973e+11 -9.7044186628980515e+10 0.0000000000000000e+00  4.0493574497248035e+11 4.9594114383089172e+10 0.0000000000000000e+00  2.0164271134539209e+11 1.0642586283482832e+11 0.0000000000000000e+00  3.2369807333645947e+11 -2.4653940312815466e+11 0.0000000000000000e+00  7.9764399995815369e+10 -2.1576388572177722e+11 0.0000000000000000e+00  7.9766244597729858e+10 2.1575716431133344e+11 0.0000000000000000e+00  -6.6804815437230736e+10 -2.1917715132845993e+11 0.0000000000000000e+00  -6.6804433915147202e+10 2.1917771592900247e+11 0.0000000000000000e+00  2.0677506818818082e+11 -2.3907584452030539e+11 0.0000000000000000e+00  2.0034233880937381e+11 2.3525633084674442e+11 0.0000000000000000e+00  2.2639287938117050e+10 -3.1280426686772687e+11 0.0000000000000000e+00  2.2640543886904541e+10 3.1280450925974829e+11 0.0000000000000000e+00  3.2384216898421204e+11 -5.4420267642987602e+10 0.0000000000000000e+00  -1.7274883029349030e+11 -2.6728735151556512e+11 0.0000000000000000e+00  -1.7276964556906339e+11 2.6737411039039276e+11 0.0000000000000000e+00  -1.7399161750275516e+11 -1.4859006148059619e+11 0.0000000000000000e+00  -1.7399574095973599e+11 1.4859363233266141e+11 0.0000000000000000e+00  -2.6227645906553888e+11 3.1002125895751495e+11 0.0000000000000000e+00  -2.9296448380680634e+11 1.0981438725930106e+11 0.0000000000000000e+00  -3.0984945955663538e+11 1.9433904910034921e+11 0.0000000000000000e+00  -2.1919573362947571e+10 -4.0408463976897919e+11 0.0000000000000000e+00  -3.5893349788584023e+10 4.0461406316774524e+11 0.0000000000000000e+00  -2.2245271034915622e+11 -1.8717791775743809e+10 0.0000000000000000e+00  2.2135738452295111e+11 -3.4103720857061298e+11 0.0000000000000000e+00  2.0864942712120273e+11 3.4858690670986322e+11 0.0000000000000000e+00  -3.8670998655051190e+11 -1.2821402292052087e+11 0.0000000000000000e+00  -2.9899089922590088e+11 -7.5596747571703171e+10 0.0000000000000000e+00  3.8403603610224829e+11 -1.2993814351689099e+11 0.0000000000000000e+00  2.8327085437143304e+11 -2.4013130523119711e+11 0.0000000000000000e+00  7.3105389798773026e+10 -3.6136713775645514e+11 0.0000000000000000e+00  7.3111253605078247e+10 3.6134678375836139e+11 0.0000000000000000e+00  -1.5439496321574390e+11 -3.3396342336985919e+11 0.0000000000000000e+00  -1.5663062769152173e+11 3.3079841791362939e+11 0.0000000000000000e+00  -3.7636117076173950e+11 -1.9994965731684849e+10 0.0000000000000000e+00  -3.1299340980104370e+11 -2.1693690966751410e+11 0.0000000000000000e+00  2.2135008952038934e+11 1.1841455487798346e+10 0.0000000000000000e+00  2.0627736269452643e+11 -1.5322549464813461e+11 0.0000000000000000e+00  2.7318645263639410e+11 2.4564299708729492e+11 0.0000000000000000e+00  -2.3794654682848819e+11 -3.2773031957371014e+11 0.0000000000000000e+00  -2.4646707925073730e+11 2.7575214302278629e+10 0.0000000000000000e+00  -3.9219503956724384e+11 8.6438256055541656e+10 0.0000000000000000e+00  3.4028336784552338e+11 1.3463026003125652e+11 0.0000000000000000e+00  2.6454773185737076e+11 -9.7345075960689407e+10 0.0000000000000000e+00  3.4392508280398566e+11 2.1305246424713980e+11 0.0000000000000000e+00  2.0650870908956821e+11 1.6012553896250967e+11 0.0000000000000000e+00  2.0871102588943152e+11 5.9926889312830750e+10 0.0000000000000000e+00  1.2778140994896518e+11 -2.3391846683463354e+11 0.0000000000000000e+00  1.2587154827876836e+11 2.3333495982931848e+11 0.0000000000000000e+00  6.3192707479458542e+10 -2.6385950415346735e+11 0.0000000000000000e+00  6.3201296709629997e+10 2.6385241059083865e+11 0.0000000000000000e+00  -3.8344637864018272e+10 -2.6009342950151703e+11 0.0000000000000000e+00  -3.8344640786325607e+10 2.6009464138014246e+11 0.0000000000000000e+00  3.0807282374920935e+11 7.9903159343965445e+09 0.0000000000000000e+00  -2.2026850877678329e+11 -1.3011562748880362e+11 0.0000000000000000e+00  -2.1991941052153040e+11 1.3041310104360973e+11 0.0000000000000000e+00  -1.1066553799640051e+11 -2.4590471136199365e+11 0.0000000000000000e+00  -1.1066510701570599e+11 2.4591423337264407e+11 0.0000000000000000e+00  -2.9979655509782471e+11 -1.4288040392137012e+11 0.0000000000000000e+00  1.6048339975022189e+11 1.4009572493776727e+11 0.0000000000000000e+00  1.1160209506169646e+11 -1.8119435649607538e+11 0.0000000000000000e+00  1.1174230216042270e+11 1.8087383793340225e+11 0.0000000000000000e+00  -1.8151548501522672e+11 -2.0231523802345016e+11 0.0000000000000000e+00  -1.8154622843701877e+11 2.0233548123513162e+11 0.0000000000000000e+00  -1.8179733168655853e+11 3.5310705980613281e+11 0.0000000000000000e+00  -3.1704036687111932e+11 2.4027059655979797e+11 0.0000000000000000e+00  2.0788967754037332e+11 -5.4331335468003174e+10 0.0000000000000000e+00  -1.9841387202079147e+10 2.1204918590716403e+11 0.0000000000000000e+00  -1.9841432092915836e+10 -2.1204904554156482e+11 0.0000000000000000e+00  -3.2227819411479883e+11 2.4335501931961624e+11 0.0000000000000000e+00  -3.2830053124131409e+11 5.2670524993916397e+10 0.0000000000000000e+00  6.4709542489277573e+10 -3.9161554179940491e+11 0.0000000000000000e+00  -1.1386286799226736e+11 -3.8254165221131293e+11 0.0000000000000000e+00  6.4600911842968941e+10 3.9158357155351025e+11 0.0000000000000000e+00  1.5899530351299121e+11 -1.4170598657589294e+11 0.0000000000000000e+00  2.8817107459827429e+11 -2.7425137136916440e+11 0.0000000000000000e+00  3.2475045760225159e+11 -1.2576166333491399e+11 0.0000000000000000e+00  -2.3097475128662317e+11 -2.4885713721358063e+11 0.0000000000000000e+00  -2.3036183125015027e+11 2.4901874820589008e+11 0.0000000000000000e+00  3.9427362225469702e+11 -4.3283611220939209e+10 0.0000000000000000e+00  4.0153375958057635e+11 -5.1552684185238304e+10 0.0000000000000000e+00  2.5159280594066183e+11 1.0796229953235844e+11 0.0000000000000000e+00  -1.8957434680009955e+11 -9.9346286066752258e+10 0.0000000000000000e+00  -1.8973175457239291e+11 9.9348651132436386e+10 0.0000000000000000e+00  -3.7052781331230629e+10 -3.4073054929544965e+11 0.0000000000000000e+00  -3.7053308211919350e+10 3.4075893568576422e+11 0.0000000000000000e+00  1.7860557421591644e+11 -2.9597706748761908e+11 0.0000000000000000e+00  1.7845056417503207e+11 2.9612530706563708e+11 0.0000000000000000e+00  3.6283542103825812e+11 -4.6622673253776482e+10 0.0000000000000000e+00  3.6733871659260338e+10 -2.0836188393341321e+11 0.0000000000000000e+00  3.6734527478263237e+10 2.0836108389190094e+11 0.0000000000000000e+00  -2.5569414898485510e+11 -3.7218601071924133e+10 0.0000000000000000e+00  -9.5243371011578430e+10 -1.8880557984483054e+11 0.0000000000000000e+00  -9.5243753443528381e+10 1.8880615204247437e+11 0.0000000000000000e+00  2.8872773461262360e+11 2.8325466420340668e+11 0.0000000000000000e+00  3.8689228903475031e+11 1.0941073214342030e+11 0.0000000000000000e+00  -1.3706692429938518e+11 -1.6383500244903342e+11 0.0000000000000000e+00  -1.3706719809207430e+11 1.6383801257351569e+11 0.0000000000000000e+00  1.4379471294875302e+11 -3.6017896340717609e+11 0.0000000000000000e+00  1.4373960446594415e+11 3.6032538525115778e+11 0.0000000000000000e+00  3.7939801993253113e+11 1.1842620751095441e+11 0.0000000000000000e+00  -1.0018279123815811e+11 -3.7239107224511792e+11 0.0000000000000000e+00  -1.0543742790011821e+11 3.7364371091162457e+11 0.0000000000000000e+00  -2.0204127245621225e+11 5.3439154634334785e+10 0.0000000000000000e+00  3.3421999653363257e+11 -1.9814915774986783e+11 0.0000000000000000e+00  2.9721895951223083e+11 2.6262273330154916e+11 0.0000000000000000e+00  -2.7117594602036127e+11 5.1377242453228409e+10 0.0000000000000000e+00  -3.9633578352142017e+11 7.5477589070118885e+09 0.0000000000000000e+00  -2.0304941473749344e+11 -4.9528212281330826e+10 0.0000000000000000e+00  -9.7743215161810944e+10 3.8513425454262061e+11 0.0000000000000000e+00  3.0671426013466663e+11 8.0128864570166412e+10 0.0000000000000000e+00  1.6634276990356650e+11 -3.5948473807652869e+11 0.0000000000000000e+00  1.6371802336933990e+11 3.6078633756387183e+11 0.0000000000000000e+00  -3.5931600408670947e+11 -1.8188254473322650e+11 0.0000000000000000e+00  -3.5278393946575104e+11 1.6722486526864685e+11 0.0000000000000000e+00  3.4753725604057434e+11 -1.9298397466765036e+11 0.0000000000000000e+00  -3.9355821665207678e+11 -7.6407373820403412e+10 0.0000000000000000e+00  1.7585740893415152e+11 -1.0940979283205594e+11 0.0000000000000000e+00  -3.1512213413887909e+11 -2.3609912464401477e+11 0.0000000000000000e+00  -3.3077296292247424e+11 -4.0747535835469551e+10 0.0000000000000000e+00  2.6270906062854984e+11 1.0175737123050055e+10 0.0000000000000000e+00  2.1885561053017215e+11 -1.8269908032262457e+11 0.0000000000000000e+00  -3.8169828708705261e+11 -8.5512568618802017e+10 0.0000000000000000e+00  2.1624434340290704e+11 -1.8695782335249012e+10 0.0000000000000000e+00  -2.0667107326910629e+11 1.2112356340713390e+10 0.0000000000000000e+00  1.3647823453452617e+11 1.6152206027061374e+11 0.0000000000000000e+00  -2.6013252825801129e+11 -1.2107415293811320e+11 0.0000000000000000e+00  -3.5626728653694464e+11 -1.6013316400955695e+11 0.0000000000000000e+00  -3.2843318400732349e+11 1.1734639708337582e+11 0.0000000000000000e+00  -3.9256244672991034e+11 1.0602195122859315e+11 0.0000000000000000e+00  -1.7969481396216974e+11 -3.4443182920405627e+11 0.0000000000000000e+00  -3.6621334204170471e+11 1.5582946229141873e+11 0.0000000000000000e+00  -2.9610263568128259e+11 2.4140700142535358e+11 0.0000000000000000e+00  -2.2898302670325577e+10 -3.0537253052772192e+11 0.0000000000000000e+00  -2.2900731638084106e+10 3.0536634264557782e+11 0.0000000000000000e+00  1.7692288538227924e+11 1.0522433689560141e+11 0.0000000000000000e+00  2.3000200738710117e+11 1.9271401882344977e+11 0.0000000000000000e+00  -8.3395137703102783e+10 -3.9534045600795612e+11 0.0000000000000000e+00  -7.6208546480716248e+10 3.9771673566504456e+11 0.0000000000000000e+00  1.6729769350985007e+11 -2.5959680307474445e+11 0.0000000000000000e+00  1.6322911702845761e+11 2.5893620064853235e+11 0.0000000000000000e+00  2.3971213427463956e+11 -1.3371931271439383e+11 0.0000000000000000e+00  1.3573635955412529e+11 -1.6396925959790790e+11 0.0000000000000000e+00  -2.2280191772765430e+11 3.3700441153810498e+11 0.0000000000000000e+00  1.8059791939645123e+11 -3.6295161301564819e+11 0.0000000000000000e+00  1.8089438614380450e+11 3.6294793385123907e+11 0.0000000000000000e+00  3.1689954944447296e+11 2.0030223040637509e+11 0.0000000000000000e+00  3.1504648710231361e+10 -4.0267459195228314e+11 0.0000000000000000e+00  3.1544995124173687e+10 4.0271107420289362e+11 0.0000000000000000e+00  -2.5391941447799271e+11 2.9964773770878638e+11 0.0000000000000000e+00  -1.9572593136427869e+11 -3.4179959740140576e+11 0.0000000000000000e+00  -2.0724976694085617e+11 -1.6587997025834778e+11 0.0000000000000000e+00  -2.0657235940828256e+11 1.6564810594674387e+11 0.0000000000000000e+00  -2.0725456450724411e+11 -2.9467334434972192e+11 0.0000000000000000e+00  -2.0691680443773187e+11 2.9403319902425787e+11 0.0000000000000000e+00  2.7514218227939398e+11 -2.8686581764095306e+11 0.0000000000000000e+00  -2.8761023980179523e+11 1.5938655610568253e+11 0.0000000000000000e+00  7.1413543492307007e+10 -3.1812270735123444e+11 0.0000000000000000e+00  7.1411901835300156e+10 3.1813071318756915e+11 0.0000000000000000e+00  3.9003101614172778e+11 3.5241212805284210e+10 0.0000000000000000e+00  -1.3395400939046577e+11 -2.9681563554170996e+11 0.0000000000000000e+00  -1.3375423710082716e+11 2.9464750663973810e+11 0.0000000000000000e+00  3.6351168635434100e+11 -1.8226791975220447e+11 0.0000000000000000e+00  -2.4881241357536583e+10 -3.9263104935392230e+11 0.0000000000000000e+00  -1.5806919006600117e+10 3.8974619003380701e+11 0.0000000000000000e+00  7.0982968422077045e+09 -3.6639523942410309e+11 0.0000000000000000e+00  7.1086631056342363e+09 3.6640751493586426e+11 0.0000000000000000e+00  -1.6682964380608102e+11 -1.1733596910181638e+11 0.0000000000000000e+00  -1.6646018080556860e+11 1.1749756574316206e+11 0.0000000000000000e+00  3.7679339634632495e+11 1.5763805311779425e+11 0.0000000000000000e+00  2.2937044381053870e+11 -2.9051470158412280e+11 0.0000000000000000e+00  2.2885091909419431e+11 -3.0983074593846918e+11 0.0000000000000000e+00  2.3639003747182162e+11 3.0994101982666266e+11 0.0000000000000000e+00  1.8788106298937106e+11 8.0883351653510315e+10 0.0000000000000000e+00  1.0087647999273272e+10 2.1381854244504163e+11 0.0000000000000000e+00  1.0087766892229464e+10 -2.1381835451594797e+11 0.0000000000000000e+00  -2.5800971554505402e+11 -4.0389777711276784e+09 0.0000000000000000e+00  9.8115930721109390e+10 -2.5532658555101620e+11 0.0000000000000000e+00  9.7849221745985397e+10 2.5522588620550565e+11 0.0000000000000000e+00  2.3800667597967136e+11 -6.6050821430396080e+10 0.0000000000000000e+00  -7.5419523844319244e+10 -2.6311327766165259e+11 0.0000000000000000e+00  -7.5408710480095886e+10 2.6311061627773105e+11 0.0000000000000000e+00  2.9099433566861877e+11 -2.3602851066269939e+10 0.0000000000000000e+00  -2.5137120302117899e+11 -2.9582080791772797e+11 0.0000000000000000e+00  -2.7681043701116077e+11 -2.9856832536698944e+11 0.0000000000000000e+00  -4.4516493950185211e+10 -1.9858641762900882e+11 0.0000000000000000e+00  -4.4516541891522675e+10 1.9858652368541940e+11 0.0000000000000000e+00  -3.9720754203959406e+11 3.6017562149651024e+10 0.0000000000000000e+00  1.8914578948090491e+11 -7.4708501898468765e+10 0.0000000000000000e+00  8.3799238018408585e+10 1.8509534341339865e+11 0.0000000000000000e+00  8.3781873675098236e+10 -1.8510912095127603e+11 0.0000000000000000e+00  -3.3041117863419714e+11 -1.0452677770680103e+11 0.0000000000000000e+00  -2.6653641663588623e+11 2.1798991393192606e+11 0.0000000000000000e+00  4.0038635317360071e+11 4.6688288171335506e+09 0.0000000000000000e+00  3.6559759413477319e+11 -1.2192702788079729e+11 0.0000000000000000e+00  -2.5530720703421030e+11 1.2518716368018327e+11 0.0000000000000000e+00  -8.9317509479312515e+10 -3.3776865899042358e+11 0.0000000000000000e+00  -9.0526592652689240e+10 3.3723130162003040e+11 0.0000000000000000e+00  2.2743712250904016e+11 2.8864575936859180e+11 0.0000000000000000e+00  1.8917779003684106e+11 1.9298202786536804e+11 0.0000000000000000e+00  3.4693193130036578e+11 -3.6169713125931387e+09 0.0000000000000000e+00  -6.8025962862231308e+10 -1.9155726069112778e+11 0.0000000000000000e+00  -6.8026064122371552e+10 1.9155757023674292e+11 0.0000000000000000e+00  2.3710746815050702e+11 7.4602165953331436e+10 0.0000000000000000e+00  1.3262571033396021e+11 -3.2602030860052734e+11 0.0000000000000000e+00  1.3258287161908774e+11 3.2600758391423975e+11 0.0000000000000000e+00  1.7161744991544150e+11 -2.1706252047180502e+11 0.0000000000000000e+00  -1.5821442488452942e+11 -1.7824984582264468e+11 0.0000000000000000e+00  -1.5820500025789923e+11 1.7824742524497974e+11 0.0000000000000000e+00  -2.7281370131407111e+11 -2.1302887793919861e+11 0.0000000000000000e+00  2.9950262390300549e+11 -1.9098354371508517e+11 0.0000000000000000e+00  2.4780221209759155e+11 -2.0653867831305310e+11 0.0000000000000000e+00  2.4058297232826819e+11 1.4723160678835837e+11 0.0000000000000000e+00  -1.4369579113841150e+11 -1.3886874354046292e+11 0.0000000000000000e+00  -1.4365593958120874e+11 1.3885535627629761e+11 0.0000000000000000e+00  7.9487627297614899e+10 -3.8515739478821399e+11 0.0000000000000000e+00  7.9505954307480179e+10 3.8513453570065002e+11 0.0000000000000000e+00  -3.6335609479038678e+11 3.9702461366296135e+10 0.0000000000000000e+00  7.9596922951041565e+09 -2.7774014155578925e+11 0.0000000000000000e+00  7.9602997162335615e+09 2.7774034946614716e+11 0.0000000000000000e+00  -1.7008032888456198e+11 3.5395226894289972e+11 0.0000000000000000e+00  3.0133019860106769e+11 1.2343774202985970e+11 0.0000000000000000e+00  6.1465250809760254e+10 1.9445990629023547e+11 0.0000000000000000e+00  6.1469157451831429e+10 -1.9445466566145837e+11 0.0000000000000000e+00  -3.0643115826273120e+11 -2.5555025986519299e+11 0.0000000000000000e+00  1.9845990380510806e+11 3.3588965142163059e+10 0.0000000000000000e+00  2.3146064597235040e+11 4.0969596467887329e+10 0.0000000000000000e+00  1.8389789701983524e+11 1.3187256585250652e+11 0.0000000000000000e+00  2.8262123457777112e+11 -2.9368920176282275e+11 0.0000000000000000e+00  -1.9792965192192938e+11 -2.3710592305570400e+10 0.0000000000000000e+00  5.4033572125753700e+10 -2.3056897833370880e+11 0.0000000000000000e+00  5.4032527490591507e+10 2.3056979076388922e+11 0.0000000000000000e+00  2.8657138996537317e+11 -1.2429839788534369e+11 0.0000000000000000e+00  -1.8509711308026657e+11 7.5996461482271362e+10 0.0000000000000000e+00  2.8122842422514270e+11 -6.2269324217595207e+10 0.0000000000000000e+00  -3.3556925380854559e+11 2.0466050872982333e+11 0.0000000000000000e+00  -1.5078373818510562e+11 -2.3453146056316602e+11 0.0000000000000000e+00  -1.5075838930574753e+11 2.3451310428447244e+11 0.0000000000000000e+00  -9.6151238752843369e+10 -2.1419137744615903e+11 0.0000000000000000e+00  -9.6150838820068451e+10 2.1419062356251297e+11 0.0000000000000000e+00  -3.3421934886026276e+11 1.0565236806002077e+10 0.0000000000000000e+00  -1.0483975946705719e+11 -1.6879337933892810e+11 0.0000000000000000e+00  -1.0483950674548154e+11 1.6879351222572513e+11 0.0000000000000000e+00  -2.7377841317382593e+11 -2.5260855033888266e+11 0.0000000000000000e+00  -1.8642653237471521e+11 -7.3053865518713455e+10 0.0000000000000000e+00  -2.2960222983889343e+11 -5.4399690725671013e+10 0.0000000000000000e+00  -4.0344357454454895e+11 -5.7630401399704948e+10 0.0000000000000000e+00  -3.5903043166078729e+11 -1.9117788855921597e+11 0.0000000000000000e+00  -2.6182181220113702e+11 8.5712574327590759e+10 0.0000000000000000e+00  -4.0440627609992035e+10 -2.2810414453249960e+11 0.0000000000000000e+00  -4.0440241672980751e+10 2.2810400439275916e+11 0.0000000000000000e+00  2.6866489646034445e+11 2.0588839916174005e+11 0.0000000000000000e+00  3.4229375472895941e+11 8.3005372777399109e+10 0.0000000000000000e+00  3.2534525076523608e+11 2.0140474592285641e+11 0.0000000000000000e+00  1.8643697501531839e+11 -1.8084824933943509e+11 0.0000000000000000e+00  1.6181727984907178e+11 2.1844855127317953e+11 0.0000000000000000e+00  3.1424948200647479e+11 2.5853619512943216e+11 0.0000000000000000e+00  -2.1742855857469504e+11 -3.4355084425269818e+11 0.0000000000000000e+00  1.0557182498859796e+11 2.0721518548892984e+11 0.0000000000000000e+00  1.0562546524259689e+11 -2.0713060178055316e+11 0.0000000000000000e+00  1.3293482567562885e+11 1.9902853450808508e+11 0.0000000000000000e+00  1.3259003362960139e+11 -1.9917599301184897e+11 0.0000000000000000e+00  -2.1654133323219022e+11 -2.1464965693026065e+11 0.0000000000000000e+00  -2.1643202775292975e+11 2.1443311100795819e+11 0.0000000000000000e+00  1.7415143098583868e+11 1.6207465628309595e+11 0.0000000000000000e+00  -3.2268057381809717e+11 -1.7022813285800348e+11 0.0000000000000000e+00  3.0200644124429938e+11 2.4810326125192291e+11 0.0000000000000000e+00  -2.6265979828361505e+11 -7.8289450923889587e+10 0.0000000000000000e+00  -2.8859067761510748e+11 -3.8404091872092331e+10 0.0000000000000000e+00  -2.7762455896012933e+11 2.9483823328118640e+11 0.0000000000000000e+00  -3.7165711453907056e+11 8.3015668788509186e+10 0.0000000000000000e+00  3.5383888625243024e+11 -9.7509211950144608e+10 0.0000000000000000e+00  2.0564241244067957e+11 -1.2208564633418225e+11 0.0000000000000000e+00  -1.4217495803323603e+10 -2.3774510388535931e+11 0.0000000000000000e+00  -1.4217467911054070e+10 2.3774476754089853e+11 0.0000000000000000e+00  -2.8537865301720380e+11 -2.8477848214846375e+11 0.0000000000000000e+00  -1.9103184170905609e+11 -1.2629947261921274e+11 0.0000000000000000e+00  -1.9102380562417310e+11 1.2632870009090878e+11 0.0000000000000000e+00  -5.2031108830822685e+10 -3.6763716701275092e+11 0.0000000000000000e+00  -5.2596169168331680e+10 3.6785073372170081e+11 0.0000000000000000e+00  2.0100505273597000e+11 -1.5126010062930322e+09 0.0000000000000000e+00  1.8123572679164044e+11 -3.2507575618004626e+11 0.0000000000000000e+00  1.8185213582126584e+11 3.2555020403365326e+11 0.0000000000000000e+00  3.5279517398845624e+11 1.6551019682650610e+11 0.0000000000000000e+00  2.6371508945988205e+11 2.8846422007949609e+11 0.0000000000000000e+00  3.3876426510507977e+11 -1.5200945711554294e+11 0.0000000000000000e+00  -3.6398518197829785e+11 -7.3123809345428406e+10 0.0000000000000000e+00  -2.4110943462784967e+11 -1.5257161588612698e+11 0.0000000000000000e+00  1.9658445625328787e+11 -3.3361558527495167e+10 0.0000000000000000e+00  2.3786633280153131e+11 -9.6035685953889275e+09 0.0000000000000000e+00  2.4455021093351468e+11 3.2335804812083490e+11 0.0000000000000000e+00  3.6076504284739655e+11 1.2289763985533159e+11 0.0000000000000000e+00  -2.1270769007817944e+11 -1.0384574545389038e+11 0.0000000000000000e+00  -2.1273656604242416e+11 1.0435680044769986e+11 0.0000000000000000e+00  -1.8346924916283560e+11 -3.6079408948484607e+11 0.0000000000000000e+00  -2.7373877451896396e+11 2.1796301893554276e+10 0.0000000000000000e+00  2.3984410022700946e+11 -2.4636193099169269e+11 0.0000000000000000e+00  -2.3707839001854382e+11 5.3606525171985535e+10 0.0000000000000000e+00  1.1469090180546692e+11 -1.5959194025849118e+11 0.0000000000000000e+00  -3.4607371361253381e+11 7.8559232961269562e+10 0.0000000000000000e+00  -3.8243428848022949e+11 -1.2874542737580272e+11 0.0000000000000000e+00  1.1161502152246799e+11 1.6104193103648257e+11 0.0000000000000000e+00  -4.4060297224514399e+09 1.9629617493350598e+11 0.0000000000000000e+00  -4.4060907312467098e+09 -1.9629618181043790e+11 0.0000000000000000e+00  -3.4669528671040192e+11 2.1362358624548743e+11 0.0000000000000000e+00  -2.1094291672018076e+11 3.4789548760391254e+11 0.0000000000000000e+00  4.0703954106823676e+11 -1.6045522486722891e+10 0.0000000000000000e+00  -1.0535115047166461e+11 3.9252872866395178e+11 0.0000000000000000e+00  2.3842416161261722e+11 -3.2751812030184662e+11 0.0000000000000000e+00  -2.3976868055144260e+11 1.5477259932204886e+11 0.0000000000000000e+00  -2.0476017590163275e+11 3.2431222084734052e+11 0.0000000000000000e+00  1.7703394174384351e+11 -1.5514638767190482e+11 0.0000000000000000e+00  8.4434584770480804e+10 -2.8501892506173047e+11 0.0000000000000000e+00  8.4432862734427963e+10 2.8501085970129272e+11 0.0000000000000000e+00  -3.0498950227119556e+11 2.6929277905200119e+11 0.0000000000000000e+00  3.9101368898011230e+11 -1.0902171361004453e+11 0.0000000000000000e+00  3.9729869191252144e+10 -3.4048823001176129e+11 0.0000000000000000e+00  3.9727262876841942e+10 3.4049036792253101e+11 0.0000000000000000e+00  1.8774249064409558e+11 5.8057471911417259e+10 0.0000000000000000e+00  -2.5516988017726733e+11 2.6354727160062671e+11 0.0000000000000000e+00  4.6479214499006821e+10 -2.8777914070598627e+11 0.0000000000000000e+00  4.6479000988485268e+10 2.8777941005513965e+11 0.0000000000000000e+00  3.9535797146424469e+11 6.5728101868576080e+10 0.0000000000000000e+00  3.0335044861946417e+11 1.6543683479706412e+11 0.0000000000000000e+00  1.5754539041032489e+11 -3.7399328705276715e+11 0.0000000000000000e+00  1.5475869343800571e+11 3.7519080287342096e+11 0.0000000000000000e+00  3.8745216461326080e+11 -6.7843394658900162e+10 0.0000000000000000e+00  -3.9993398676623596e+11 -1.9442654012632771e+10 0.0000000000000000e+00  -1.0690811536646333e+11 -2.7528850741251318e+11 0.0000000000000000e+00  -1.0694730966167062e+11 2.7512869740780145e+11 0.0000000000000000e+00  -7.6555378897745895e+10 -3.9962497268665533e+11 0.0000000000000000e+00  -1.4849520788862784e+11 -3.6592137049566907e+11 0.0000000000000000e+00  3.6680045658318199e+10 -4.0529260630771759e+11 0.0000000000000000e+00  3.6144747560516769e+10 4.0544136174673395e+11 0.0000000000000000e+00  -3.0080800094359546e+11 2.2888249135774612e+11 0.0000000000000000e+00  -1.7690402351624432e+11 3.3196209037006207e+11 0.0000000000000000e+00  -3.0137398890592316e+11 3.5234232189399155e+10 0.0000000000000000e+00  -2.3052712440475894e+11 6.0739988566270781e+09 0.0000000000000000e+00  -1.9544332688862482e+11 2.7606956120580475e+10 0.0000000000000000e+00  2.1875027162169974e+11 1.2668031682367992e+11 0.0000000000000000e+00  3.4627031439741982e+10 -3.8600089154321863e+11 0.0000000000000000e+00  3.4631047246253716e+10 3.8601238813649042e+11 0.0000000000000000e+00  1.9969872137256645e+10 1.9463702887992343e+11 0.0000000000000000e+00  1.9970181543480114e+10 -1.9463670369410641e+11 0.0000000000000000e+00  3.9991613178482123e+11 -7.1239825417002014e+10 0.0000000000000000e+00  2.7437484972446637e+11 8.6082521777665680e+10 0.0000000000000000e+00  3.0939993740271100e+11 -9.3848517604090439e+10 0.0000000000000000e+00  1.0651946320646628e+11 3.6930899860186853e+11 0.0000000000000000e+00  1.0697523858502176e+11 -3.6927083793642310e+11 0.0000000000000000e+00  3.9344713644547607e+11 1.0089468575087587e+11 0.0000000000000000e+00  -2.9709640531597729e+11 7.1444911412335815e+10 0.0000000000000000e+00  -1.0125094738809479e+11 -3.6408696202657837e+11 0.0000000000000000e+00  1.7693643116006033e+11 -8.8058913804831528e+10 0.0000000000000000e+00  3.1710484377006500e+11 -2.3884128947380136e+11 0.0000000000000000e+00  2.1073006853122348e+11 8.3779988160131134e+10 0.0000000000000000e+00  -1.6776850407520798e+11 -2.9909351564153717e+11 0.0000000000000000e+00  -1.6765971403913223e+11 2.9746117083092133e+11 0.0000000000000000e+00  2.2685009562401837e+11 -3.9995124396554848e+10 0.0000000000000000e+00  -2.3353526258389233e+10 -4.0498717586679675e+11 0.0000000000000000e+00  -2.3438306002996521e+10 4.0425768173746179e+11 0.0000000000000000e+00  2.3771136388439346e+11 2.4065023000217596e+11 0.0000000000000000e+00  -4.0335884348186536e+11 5.6821064366656700e+10 0.0000000000000000e+00  2.7258836346677982e+11 -2.5511858863025598e+11 0.0000000000000000e+00  2.7024250705289902e+11 3.0341816430496362e+11 0.0000000000000000e+00  3.2511902991120148e+11 -2.4012051194409680e+11 0.0000000000000000e+00  1.5799916723848444e+11 -1.2046518043054750e+11 0.0000000000000000e+00  -1.8764604203333725e+11 -2.3289455612650299e+11 0.0000000000000000e+00  -1.8764372571359222e+11 2.3292717292272638e+11 0.0000000000000000e+00  2.3025336647427246e+11 -9.9900599512725510e+10 0.0000000000000000e+00  2.6722469378019452e+11 1.3173098768039430e+11 0.0000000000000000e+00  -1.3518448800805956e+11 -2.6472951837671460e+11 0.0000000000000000e+00  -1.3597542313953346e+11 2.6372489793018671e+11 0.0000000000000000e+00  1.3740853087103186e+11 -1.4334235751847064e+11 0.0000000000000000e+00  7.7888245470044647e+10 -2.4019777324126053e+11 0.0000000000000000e+00  7.7860674935836884e+10 2.4018134301270181e+11 0.0000000000000000e+00  -1.6936607799226678e+11 9.6118300122521515e+10 0.0000000000000000e+00  -1.7175766586694687e+11 -9.3497433297168381e+10 0.0000000000000000e+00  -5.7045518831281723e+10 -2.8603396662889691e+11 0.0000000000000000e+00  -5.7046939341087669e+10 2.8603203570463379e+11 0.0000000000000000e+00  2.1331008748247443e+11 -7.6072255812494110e+10 0.0000000000000000e+00  3.3235224744446198e+11 4.2270423660864914e+10 0.0000000000000000e+00  2.9266686727922296e+11 4.6174460545568649e+10 0.0000000000000000e+00  -1.0687504584847328e+11 3.6259669269105505e+11 0.0000000000000000e+00  1.3937336223865598e+11 1.3984708692500055e+11 0.0000000000000000e+00  3.6770627577266937e+11 8.9264548924189102e+10 0.0000000000000000e+00  -2.7670409443845654e+11 -1.7466971242764444e+11 0.0000000000000000e+00  3.7403749679395190e+11 -4.0426537844071091e+10 0.0000000000000000e+00  4.2056426748632675e+10 -1.8891872115921716e+11 0.0000000000000000e+00  4.2057573515249657e+10 1.8891803899002136e+11 0.0000000000000000e+00  -3.7809137928308966e+11 1.4665972689635226e+11 0.0000000000000000e+00  -2.3642397147923157e+11 1.0550634854379132e+11 0.0000000000000000e+00  1.2634633135040997e+11 2.6649381472625986e+11 0.0000000000000000e+00  1.2655681337826167e+11 -2.6662195772604736e+11 0.0000000000000000e+00  2.4138623208645117e+11 -1.6310361746701053e+11 0.0000000000000000e+00  -8.3872691467486786e+10 2.3720284248291168e+11 0.0000000000000000e+00  -8.3871255228051163e+10 -2.3720331399232849e+11 0.0000000000000000e+00  -2.0724643847755939e+11 -7.8709769433148499e+10 0.0000000000000000e+00  -1.1740460139004382e+11 -1.8756018637703610e+11 0.0000000000000000e+00  -1.1740420425525049e+11 1.8755989923928992e+11 0.0000000000000000e+00  1.7937091177552118e+11 -1.3312418911410538e+11 0.0000000000000000e+00  -2.1868821800946060e+11 3.0702723141693581e+10 0.0000000000000000e+00  -1.9621145902641278e+11 -4.4922417342232456e+09 0.0000000000000000e+00  3.5963449517274976e+11 -1.8716186145142862e+11 0.0000000000000000e+00  -2.6123709789727448e+10 1.9401751788433405e+11 0.0000000000000000e+00  -2.6123732552962597e+10 -1.9401742020021759e+11 0.0000000000000000e+00  -5.5758388690138390e+10 -3.1521319238282336e+11 0.0000000000000000e+00  -5.5862145864779373e+10 3.1521630434501233e+11 0.0000000000000000e+00  3.1774099013656171e+11 -2.0516969691897543e+11 0.0000000000000000e+00  3.1806892324135870e+11 -1.8671466863789516e+10 0.0000000000000000e+00  2.0384178092686023e+11 -2.0803815441931931e+11 0.0000000000000000e+00  9.8166272778354843e+10 -2.2990600571134613e+11 0.0000000000000000e+00  9.8095224278053482e+10 2.2985491298106622e+11 0.0000000000000000e+00  3.6548723702817383e+10 -2.5482556466598523e+11 0.0000000000000000e+00  3.6547230681457756e+10 2.5482584687471802e+11 0.0000000000000000e+00  1.8802705747936075e+11 -5.6190644283415550e+10 0.0000000000000000e+00  -2.0442209024242303e+11 8.1839789130347717e+10 0.0000000000000000e+00  9.5995763187143188e+10 1.7097204200797714e+11 0.0000000000000000e+00  9.6045193802393356e+10 -1.7092103627070508e+11 0.0000000000000000e+00  4.1936968508290604e+10 -3.7728636688352649e+11 0.0000000000000000e+00  5.3659698969788986e+10 3.7332485860930023e+11 0.0000000000000000e+00  1.4634318162086823e+11 2.8786280427789465e+11 0.0000000000000000e+00  1.4538643122220496e+11 -2.8948995003712238e+11 0.0000000000000000e+00  3.7802046870695221e+11 -8.9665572561842670e+09 0.0000000000000000e+00  -1.8178859838162912e+11 -1.7591458210966724e+11 0.0000000000000000e+00  -1.8179982330029605e+11 1.7590591616501132e+11 0.0000000000000000e+00  3.6062698590497888e+11 1.6285278612907800e+11 0.0000000000000000e+00  1.5711125103327643e+11 1.2032528294668384e+11 0.0000000000000000e+00  -2.8989493861640222e+11 -1.0743967953249692e+11 0.0000000000000000e+00  2.9879076216740746e+10 -2.2824983329668060e+11 0.0000000000000000e+00  2.9879075487553558e+10 2.2824973042943271e+11 0.0000000000000000e+00  1.5632852192926758e+11 -1.6258280512827869e+11 0.0000000000000000e+00  -8.0933614087958588e+10 -1.7630038283481647e+11 0.0000000000000000e+00  -8.0933714219498276e+10 1.7630042009868451e+11 0.0000000000000000e+00  -5.9012718083983429e+10 -2.4203097622203525e+11 0.0000000000000000e+00  -5.9014069165062874e+10 2.4203173127721527e+11 0.0000000000000000e+00  -1.2305225760811984e+11 -2.1621943144041147e+11 0.0000000000000000e+00  -1.2305727383140555e+11 2.1622133210877499e+11 0.0000000000000000e+00  -3.4979967413363824e+11 2.0100392029441537e+11 0.0000000000000000e+00  -3.3979734934634406e+11 1.5381306276283664e+11 0.0000000000000000e+00  -1.1922798406039893e+11 1.5143948149099380e+11 0.0000000000000000e+00  -1.1922485558161835e+11 -1.5144073249136169e+11 0.0000000000000000e+00  1.1329015542451997e+11 3.8632015657523053e+11 0.0000000000000000e+00  1.1319216859997881e+11 -3.8634032148706189e+11 0.0000000000000000e+00  2.7460992272468365e+11 2.5604550176353000e+11 0.0000000000000000e+00  -1.5192725103159879e+11 3.7455235453167096e+11 0.0000000000000000e+00  2.0615421198145914e+11 -2.6939581683969424e+11 0.0000000000000000e+00  2.2531273656156229e+11 9.9409551763077225e+10 0.0000000000000000e+00  -2.3596105845813904e+11 -1.0445872213928395e+11 0.0000000000000000e+00  3.0249442540030743e+11 -1.5428602109395819e+11 0.0000000000000000e+00  5.1529232721580601e+08 -3.3640918909024451e+11 0.0000000000000000e+00  5.1326506760592818e+08 3.3640225717928790e+11 0.0000000000000000e+00  -3.1987297045556628e+11 8.6519841954943527e+10 0.0000000000000000e+00  2.0188237102485016e+11 2.6596480384999594e+11 0.0000000000000000e+00  3.6064729240392298e+07 -5.9747840582360819e+07 0.0000000000000000e+00  -9.4908259339596069e+10 1.8041060382441931e+11 0.0000000000000000e+00  -1.1387909894994759e+10 -2.1283237056343555e+11 0.0000000000000000e+00  -2.0928807120690134e+11 2.7473276422040224e+09 0.0000000000000000e+00  1.8251612096008151e+11 -1.1004841759454047e+11 0.0000000000000000e+00  1.1518318552459268e+11 1.7475856947030148e+11 0.0000000000000000e+00  -1.7705850463938052e+11 -1.7259276346419519e+11 0.0000000000000000e+00  2.4219525936112610e+11 4.9666179164982651e+10 0.0000000000000000e+00  1.2807141272315689e+11 -2.3870805355150638e+11 0.0000000000000000e+00  1.7754669778193550e+10 2.7047942817289734e+11 0.0000000000000000e+00  -2.3294513192095593e+11 1.3858157591611655e+11 0.0000000000000000e+00  -8.0137488843117249e+10 -1.0347453056503030e+11 0.0000000000000000e+00  1.3061356602508104e+11 8.2812493937223530e+09 0.0000000000000000e+00  2.2305416715286186e+10 1.4755958596815671e+11 0.0000000000000000e+00  6.0954360894329643e+10 -1.1466996163186511e+11 0.0000000000000000e+00  -1.3351046779419040e+11 6.4895173562509483e+10 0.0000000000000000e+00  -2.6581482115473587e+11 -9.5673432352154968e+10 0.0000000000000000e+00  -1.1300756877726169e+11 -2.5887212282970142e+11 0.0000000000000000e+00  2.7764928116208240e+11 -5.1735544587486595e+10 0.0000000000000000e+00  2.2827693893738043e+11 1.6626082464860300e+11 0.0000000000000000e+00  -7.2111682110889191e+10 2.9261583529502026e+11 0.0000000000000000e+00  -2.0094107116206259e+11 2.2448902553187405e+11 0.0000000000000000e+00  4.1750046005782043e+10 -2.8443480828494958e+11 0.0000000000000000e+00  2.1362299333517133e+11 -1.9503560557900861e+11 0.0000000000000000e+00  -2.8491031911184326e+11 5.6098009898731499e+10 0.0000000000000000e+00  1.1398667298683955e+11 2.6691874238738705e+11 0.0000000000000000e+00  -1.9620402955036987e+11 -2.4313369362948859e+11 0.0000000000000000e+00  3.1141066631640076e+11 2.5971037509988960e+10 0.0000000000000000e+00  1.6138117844022998e+11 9.3357337822498947e+10 0.0000000000000000e+00  -1.6783733611260086e+11 -8.1181068947536194e+10 0.0000000000000000e+00  -2.4975708552834973e+11 -1.7379255980646777e+11 0.0000000000000000e+00  2.8410890708551910e+11 1.0928650743768417e+11 0.0000000000000000e+00  2.7793719031833875e+11 -1.3691134053922461e+11 0.0000000000000000e+00  -4.2623760032220657e+10 -3.0652034296382129e+11 0.0000000000000000e+00  -3.1116564294678418e+11 -4.1107530305125702e+10 0.0000000000000000e+00  2.0882958867117746e+11 2.3454699761974292e+11 0.0000000000000000e+00  -9.3740522719302628e+10 -1.8618968988251810e+11 0.0000000000000000e+00  2.0670254589503729e+11 -2.6869894135882977e+10 0.0000000000000000e+00  6.7969782511181793e+10 6.8348626893560326e+10 0.0000000000000000e+00  -9.4561041150770264e+10 -1.7801395704350147e+10 0.0000000000000000e+00  -1.5734526847003250e+11 1.3939122897383478e+11 0.0000000000000000e+00  6.8531061080255814e+10 -1.9321901721637567e+11 0.0000000000000000e+00  -3.3245000377340202e+10 2.1252555031805377e+11 0.0000000000000000e+00  1.7226866193344278e+11 -2.6641642306659729e+11 0.0000000000000000e+00  -2.8606237553535907e+11 1.3768987911650116e+11 0.0000000000000000e+00  -7.6349878772708340e+09 3.1970205048218140e+11 0.0000000000000000e+00  1.2267238294406511e+11 -2.9292233494623810e+11 0.0000000000000000e+00  -2.5945495778249750e+11 1.8790739931240955e+11 0.0000000000000000e+00  4.7988775926528503e+10 3.1518754849683820e+11 0.0000000000000000e+00  -1.4765648052117795e+11 2.7905651504612079e+11 0.0000000000000000e+00  1.3975265273393832e+11 -1.7095062402420667e+11 0.0000000000000000e+00  5.0349739262847153e+10 2.1637837177006216e+11 0.0000000000000000e+00  -2.0705841693326117e+11 7.9024980498177444e+10 0.0000000000000000e+00  -1.0277300929939791e+10 -1.4386066618058783e+11 0.0000000000000000e+00  1.2807508879804439e+11 -7.3516363385445541e+10 0.0000000000000000e+00  -3.5248307154501945e+10 6.7515559860654396e+10 0.0000000000000000e+00  3.2279163893648724e+11 -3.5108349861294685e+10 0.0000000000000000e+00  -1.5204878340462561e+11 -2.8683294451108087e+11 0.0000000000000000e+00  -6.5737707685675209e+10 1.3236786883885434e+11 0.0000000000000000e+00  -1.3766493355706676e+10 -7.2710163124430344e+10 0.0000000000000000e+00  6.7876853867000328e+10 -2.9415967225440552e+10 0.0000000000000000e+00  -2.9666764696645636e+11 -1.2319505862735814e+11 0.0000000000000000e+00  2.6863400334928284e+11 1.7650265120752325e+11 0.0000000000000000e+00  -4.9496612934200546e+10 -2.5548133196909332e+11 0.0000000000000000e+00  -2.5518001465520859e+11 -3.8048925890340439e+10 0.0000000000000000e+00  2.3925223460698059e+11 -1.0246015937544090e+11 0.0000000000000000e+00  1.7472036724351956e+11 1.8983467675920331e+11 0.0000000000000000e+00  -2.1825403972910376e+11 -1.1432406535401378e+11 0.0000000000000000e+00  2.1710272350187943e+11 1.1648374154121681e+11 0.0000000000000000e+00  3.1141864199226929e+11 -9.1568829276770981e+10 0.0000000000000000e+00  -9.8707886966116440e+10 -3.0890896263391315e+11 0.0000000000000000e+00  -1.2484157900237808e+11 2.3559513054067215e+11 0.0000000000000000e+00  </DataArray> 
</PointData> 
</Piece>
</UnstructuredGrid>
</VTKFile>